%!PS-Adobe-3.0 EPSF-3.0
/Times-Roman findfont
%/Helvetica findfont
44 scalefont setfont
2 2 scale
10 20 moveto
(Lenguajes UN) show
10 10 moveto
10 50 lineto
270 50 lineto
270 10 lineto
10 10 lineto
&
stroke
showpage
%%EOF