%!PS-Adobe-2.0
%%Title: The Box Fractal
%%Creator: Alena Lacova, NIKHEF-H
%%CreationDate: 22-jun-1992
%%Pages: 1
%%EndComments
%%BeginProlog
/Box { %def 
	0 0 moveto len 0 rlineto 
	0 len rlineto len neg 0 rlineto
	closepath fill 
} bind def
/x_tr { len 0 translate } bind def
/y_tr { 0 len translate } bind def
%%EndProlog
%%Page: 0 1
/len 500 def
50 100 translate
Box
1 setgray

/Rep 0 def
2 1 6 { %for
	/i exch def
	/len len 3 div def
	i 2 eq {/Rep 3 def}{/Rep Rep 3 mul def} ifelse
	/Par Rep 2 idiv def
	gsave
		1 1 Rep { gsave
			 2 mod 0 eq {Box x_tr} if 
		  	Par { x_tr Box x_tr} repeat 
		  grestore
		  y_tr
		} for
	grestore
} for

showpage
%%Trailer
