%!PS

%++++++++++++++++
%----WEDGE----
%++++++++++++++++

/wedge
{newpath
  0 0 moveto
  1 0 translate
  15 rotate
  0 15 sin translate
  0 0 15 sin -90 90 arc
 closepath } def

%gsave
% 100 600 translate
% 50 50 scale
% wedge 0.02 setlinewidth stroke
%grestore

%+++++++++++++++++++++++
%----FLOWER----RED
%+++++++++++++++++++++++

gsave
 100 700 translate 50 50 scale 0.02 setlinewidth
 1 1 12 { 12 div 0 0  setrgbcolor	% (x 0 0)
   gsave wedge gsave fill grestore
    0 setgray stroke grestore 30 rotate } for
grestore

%+++++++++++++++++++++++
%----FLOWER----GREEN
%+++++++++++++++++++++++

gsave
 100 570 translate 50 50 scale 0.02 setlinewidth
 1 1 12 { 12 div 0 exch 0  setrgbcolor	% (0 x 0)
   gsave wedge gsave fill grestore
    0 setgray stroke grestore 30 rotate } for
grestore

%+++++++++++++++++++++++
%----FLOWER----BLUE
%+++++++++++++++++++++++

gsave
 100 440 translate 50 50 scale 0.02 setlinewidth
 1 1 12 { 12 div 0 exch 0 exch  setrgbcolor	% (0 0 x)
   gsave wedge gsave fill grestore
    0 setgray stroke grestore 30 rotate } for
grestore

%+++++++++++++++++++++++
%----FLOWER----YELLOW
%+++++++++++++++++++++++

gsave
 100 310 translate 50 50 scale 0.02 setlinewidth
 1 1 12 { 12 div dup 0  setrgbcolor		% (x x 0)
   gsave wedge gsave fill grestore
    0 setgray stroke grestore 30 rotate } for
grestore

%+++++++++++++++++++++++
%----FLOWER----PURPLE
%+++++++++++++++++++++++

gsave
 100 180 translate 50 50 scale 0.02 setlinewidth
 1 1 12 { 12 div dup 0 exch  setrgbcolor	% (x 0 x)
   gsave wedge gsave fill grestore
    0 setgray stroke grestore 30 rotate } for
grestore

%++++++++++++++++++++++++
%----FLOWER----LIGHT BLUE
%++++++++++++++++++++++++

gsave
 230 700 translate 50 50 scale 0.02 setlinewidth
 1 1 12 { 12 div 0 exch dup  setrgbcolor	% (0 x x)
   gsave wedge gsave fill grestore
    0 setgray stroke grestore 30 rotate } for
grestore

%+++++++++++++++++++++++
%----FLOWER----GRAY
%+++++++++++++++++++++++

gsave
 230 570 translate 50 50 scale 0.02 setlinewidth
 1 1 12 { 12 div  dup dup  setrgbcolor		% (x x x)
   gsave wedge gsave fill grestore
    0 setgray stroke grestore 30 rotate } for
grestore

%+++++++++++++++++++++++++++
%----FLOWER----GREEN-YELLOW
%+++++++++++++++++++++++++++

gsave
 230 440 translate 50 50 scale 0.02 setlinewidth
 1 1 12 { 12 div  1 0  setrgbcolor		% (x 1 0)
   gsave wedge gsave fill grestore
    0 setgray stroke grestore 30 rotate } for
grestore

%+++++++++++++++++++++++++++++
%----FLOWER----BLUE-PURPLE
%+++++++++++++++++++++++++++++

gsave
 230 310 translate 50 50 scale 0.02 setlinewidth
 1 1 12 { 12 div 0 1 setrgbcolor		% (x 0 1)
   gsave wedge gsave fill grestore
    0 setgray stroke grestore 30 rotate } for
grestore

%++++++++++++++++++++++++++++++
%----FLOWER----LIG.BLUE-WHITE
%++++++++++++++++++++++++++++++

gsave
 230 180 translate 50 50 scale 0.02 setlinewidth
 1 1 12 { 12 div 1 1 setrgbcolor		% (x 1 1)
   gsave wedge gsave fill grestore
    0 setgray stroke grestore 30 rotate } for
grestore

%++++++++++++++++++++++++++++++
%----FLOWER---DARK-LIGHT BLUE
%++++++++++++++++++++++++++++++

gsave
 360 700 translate 50 50 scale 0.02 setlinewidth
 1 1 12 { 12 div 0 exch 1 setrgbcolor		% (0 x 1)
   gsave wedge gsave fill grestore
    0 setgray stroke grestore 30 rotate } for
grestore

%++++++++++++++++++++++++++++++
%----FLOWER----ORANGE_YELLOW
%++++++++++++++++++++++++++++++

gsave
 360 570 translate 50 50 scale 0.02 setlinewidth
 1 1 12 { 12 div 1 exch 0 setrgbcolor		% (1 x 0)
   gsave wedge gsave fill grestore
    0 setgray stroke grestore 30 rotate } for
grestore

%++++++++++++++++++++++++++++++
%----FLOWER----PURPLE-WHITE
%++++++++++++++++++++++++++++++

gsave
 360 440 translate 50 50 scale 0.02 setlinewidth
 1 1 12 { 12 div 1 exch 1 setrgbcolor		% (1 x 1)
   gsave wedge gsave fill grestore
    0 setgray stroke grestore 30 rotate } for
grestore

%++++++++++++++++++++++++++++++
%----FLOWER----GREEN-BLUE
%++++++++++++++++++++++++++++++

gsave
 360 310 translate 50 50 scale 0.02 setlinewidth
 1 1 12 { 12 div 0 exch 1 exch setrgbcolor	% (0 1 x)
   gsave wedge gsave fill grestore
    0 setgray stroke grestore 30 rotate } for
grestore

%+++++++++++++++++++++++++++++++
%----FLOWER----RED-PURPLE
%+++++++++++++++++++++++++++++++

gsave
 360 180 translate 50 50 scale 0.02 setlinewidth
 1 1 12 { 12 div 1 exch 0 exch setrgbcolor	% (1 0 x)
   gsave wedge gsave fill grestore
    0 setgray stroke grestore 30 rotate } for
grestore

%+++++++++++++++++++++++++++++++
%----FLOWER----YELLOW-WHITE
%+++++++++++++++++++++++++++++++

gsave
 490 700 translate 50 50 scale 0.02 setlinewidth
 1 1 12 { 12 div 1 exch 1 exch setrgbcolor	% (1 1 x)
   gsave wedge gsave fill grestore
    0 setgray stroke grestore 30 rotate } for
grestore

%++++++++++++++++++++++++++++++
%----FLOWER----RED-GREEN
%++++++++++++++++++++++++++++++

gsave
 490 570 translate 50 50 scale 0.02 setlinewidth
 1 1 12 { 12 div .5 exch 0 setrgbcolor		% (.5 x 0)
   gsave wedge gsave fill grestore
    0 setgray stroke grestore 30 rotate } for
grestore

%++++++++++++++++++++++++++++++
%----FLOWER----PURPLE-YELLOW
%++++++++++++++++++++++++++++++

gsave
 490 440 translate 50 50 scale 0.02 setlinewidth
 1 1 12 { 12 div 1 exch .5 setrgbcolor		% (.5 x 1)
   gsave wedge gsave fill grestore
    0 setgray stroke grestore 30 rotate } for
grestore

%+++++++++++++++++++++++++++++++++
%----FLOWER----DARK GREEN-BLUE
%+++++++++++++++++++++++++++++++++

gsave
 490 310 translate 50 50 scale 0.02 setlinewidth
 1 1 12 { 12 div 0 exch .5 exch setrgbcolor	% (0 .5 x)
   gsave wedge gsave fill grestore
    0 setgray stroke grestore 30 rotate } for
grestore

%++++++++++++++++++++++++++++++++++
%----FLOWER----DARK RED-PURPLE
%++++++++++++++++++++++++++++++++++

gsave
 490 180 translate 50 50 scale 0.02 setlinewidth
 1 1 12 { 12 div .5 exch 0 exch setrgbcolor	% (.5 0 x)
   gsave wedge gsave fill grestore
    0 setgray stroke grestore 30 rotate } for
grestore

showpage
