%!PS
%% Author: Alena Lacova,  alena@nikhef.nl
%% Date: 14-FEB-1992
%% Description: This program draws flowers on 1 page
%%		with random position and scale
%%
%%---------- Beginning of Definitions ----------
%%
%%++++++++++++++++
%%----WEDGE----
%%++++++++++++++++
/Red 0 def /Green 0 def /Blue 0 def
/wedge { %def
  newpath
  	0 0 moveto
  	1 0 translate
  	15 rotate
  	0 15 sin translate
  	0 0 15 sin -90 90 arc
  closepath 
} def
%%+++++++++++++++++++
%%----Which Flower---
%%+++++++++++++++++++
/FlowerProp { %def
	/x { rand 600 mod } def
	/y { rand 750 mod } def
	/xs { rand 40 mod 30 add } def
	/ys { rand 40 mod 30 add } def
 	x y  translate xs ys scale 0.02 setlinewidth
	Red Green Blue setrgbcolor 
} def
%%++++++++++++++++++++++++
%%----Draw Flower----
%%++++++++++++++++++++++++
/DrawFlower { %def
  gsave
	FlowerProp
 	1 1 12 { pop
		 %/del exch def
		 %/Red Red del div def 
		 %/Green Green del div def
		 %/Blue Blue del div def
		 %Red Green Blue setrgbcolor 
   		 gsave wedge gsave fill grestore
    		 0 setgray stroke grestore 30 rotate 
	} for
  grestore
} def
%%
%%---------- End of Definitions ----------
%%---------- Beginning of Program --------
%%
gsave
0 0.2 1.1 { %for
	/Blue exch def  
	0 .2 1.1 { %for
		/Green exch def 
		0 .2 1.1 { %for
			/Red exch def DrawFlower 
		} for 
	} for 
} for
grestore
showpage
%%---------- End of Program --------------
