%!PS

/Times-Roman findfont 12 scalefont setfont
40 720 moveto (Shading a Gaussian Function) show

/Exp
{ 10 ln div 10 exch exp }	% x Exp => Exp(x)
def				% in PS: a b exp => a to power b
				% x ln => ln(x)
/Gauss
{ newpath					% defines a path of values
  -3 -9 Exp moveto				% exp(-square(x)) for x=-3 to +3
  -3 0.15 3 {dup dup mul neg Exp lineto} for	% in steps of 0.15
  closepath					% dup duplicates the top of the stack
} def

/StrokedDoubleGauss
{ gsave
	Gauss stroke
	180 rotate
	Gauss stroke
  grestore
} def

/FilledDoubleGauss
{ gsave
	45 rotate
 	0.5 setgray
	Gauss fill
	180 rotate
 	0.0 setgray
	Gauss fill
  grestore
} def

72 72 scale
0.05 setlinewidth
4.1 5.3 translate	% move to center of page

gsave
	0.6 0.6 scale
	StrokedDoubleGauss
grestore

gsave
	0 3 translate
	0.6 0.6 scale
	FilledDoubleGauss
grestore

gsave
	0 -3 translate
	0.6 0.6 scale
	4 {45 rotate FilledDoubleGauss} repeat
grestore

showpage
