%!
%%!PS-Adobe-2.0 EPSF-1.2
%%Creator:DrawerPRO1.0
%%For: scout
%%Title: Peter Gabriel "Plays Live"
%%CreationDate:09/11/77 11:36 AM
%%DocumentProcSets:drawerPRO1.0
%%DocumentSuppliedProcSets:drawerPRO1.0
%%EndComments
%%BeginProcSet:drawerPRO1.0
/drawerPRO1.0 where not {
  /drawerPRO1.0 100 dict def
  drawerPRO1.0 begin
  /invCol {3 index add neg dup 0 lt {pop 0} if 3 1 roll} def
  /setcymbcolor { 1 sub 4 1 roll invCol invCol invCol setrgbcolor pop } def
  /_k {setcymbcolor} def
  /_K {setcymbcolor} def
  /m {moveto} def
  /c {curveto} def
  /cp {closepath} def
  /s {setlinewidth _K stroke} def
  /f {closepath _k fill} def
  /fs {closepath gsave _k fill grestore s newpath} def
  /csh {
   _K findfont exch scalefont setfont
   dup stringwidth pop .5 mul neg 0 rmoveto show
  } def
  /lsh {_K findfont exch scalefont setfont show} def
  /rsh {
   _K findfont exch scalefont setfont
   dup stringwidth pop neg 0 rmoveto show
  } def
  end
} if
drawerPRO1.0 begin
%%EndProcSet
%%EndProlog

0 setgray
clippath fill

10 770 m
590 770 590 770 590 770 c
590 60 590 60 590 60 c
10 60 10 60 10 60 c
10 770 10 770 10 770 c
0 0 0 1 f
530 250 m
522 271 505 295 452 266 c
441 255 439 246 442 234 c
432 238 432 238 433 231 c
429 223 420 250 434 277 c
437 293 431 294 419 260 c
417 282 430 304 445 317 c
459 327 475 328 488 323 c
515 306 526 277 529 256 c
0 0 0 0.14 f
74 377 m
91 371 93 378 87 382 c
87 391 80 390 70 383 c
60 383 53 382 52 349 c
53 337 60 307 76 282 c
96 260 102 247 111 262 c
116 249 125 246 126 248 c
132 245 139 244 147 250 c
163 252 168 258 165 267 c
167 270 153 288 150 301 c
147 315 138 326 130 326 c
127 325 133 319 140 314 c
141 308 141 308 144 304 c
126 293 137 307 115 296 c
89 315 119 301 88 339 c
73 366 72 352 73 345 c
64 362 65 373 76 374 c
0.19 0.44 0.39 0 f
360 199 m
344 216 353 202 336 214 c
342 207 342 207 342 207 c
334 210 334 210 327 220 c
328 211 328 211 339 199 c
315 200 292 212 281 224 c
280 216 280 216 280 216 c
239 235 239 235 229 253 c
213 266 213 266 194 307 c
180 314 180 314 175 319 c
191 317 191 317 181 329 c
168 336 171 336 167 329 c
149 341 162 354 167 349 c
175 346 175 346 172 357 c
149 377 141 399 150 413 c
141 418 141 418 141 432 c
133 421 124 436 137 452 c
157 491 137 463 148 498 c
135 473 131 475 135 484 c
142 502 142 502 145 559 c
147 534 148 597 156 614 c
156 652 156 652 168 661 c
174 661 174 661 178 656 c
174 664 174 664 183 665 c
189 662 189 662 189 662 c
183 679 186 686 196 683 c
203 684 203 684 215 669 c
203 691 203 691 219 693 c
228 680 228 680 228 680 c
226 697 256 700 265 689 c
264 700 297 699 301 678 c
305 685 325 682 332 675 c
330 683 338 683 345 682 c
352 687 352 687 371 690 c
361 682 361 682 374 675 c
362 671 362 671 367 665 c
379 658 379 658 396 635 c
411 616 411 616 424 588 c
432 573 432 573 440 556 c
425 572 405 590 392 585 c
380 566 376 530 386 508 c
364 528 364 528 364 528 c
363 528 366 540 360 546 c
361 548 357 556 354 557 c
344 571 344 571 338 576 c
317 590 317 590 289 585 c
246 572 246 572 234 556 c
214 529 203 509 203 484 c
197 479 195 455 212 413 c
221 397 239 366 232 362 c
238 358 243 363 251 363 c
266 354 295 349 308 354 c
312 354 312 354 310 359 c
313 365 313 365 313 365 c
315 359 315 359 315 359 c
321 369 332 358 321 352 c
314 343 311 329 314 324 c
318 317 315 293 321 293 c
324 286 322 263 332 260 c
347 240 343 229 359 202 c
0.19 0.44 0.39 0 f
264 489 m
264 484 264 484 264 484 c
271 489 274 488 284 488 c
285 484 285 484 285 484 c
283 480 283 480 276 478 c
286 475 286 475 286 475 c
275 479 269 475 257 474 c
258 478 258 478 258 478 c
250 474 250 474 248 477 c
247 473 247 473 236 469 c
243 463 243 463 254 470 c
287 472 269 469 284 466 c
291 468 291 468 303 475 c
304 474 304 474 313 469 c
308 475 308 475 310 480 c
320 485 320 485 328 483 c
324 492 324 492 320 492 c
316 503 316 503 317 510 c
314 504 314 504 311 503 c
305 502 305 502 305 502 c
308 513 308 513 308 513 c
306 509 306 509 303 509 c
302 518 302 518 296 519 c
290 517 290 517 290 517 c
291 512 291 512 291 512 c
277 505 274 504 263 488 c
0.19 0.44 0.39 0 f
398 496 m
413 506 417 506 422 505 c
432 501 436 500 438 483 c
437 477 437 477 432 474 c
445 466 445 466 450 468 c
449 463 449 463 449 463 c
455 449 462 436 467 405 c
470 358 470 358 470 340 c
467 349 467 349 461 358 c
454 423 454 423 440 458 c
437 456 437 456 423 461 c
408 477 402 481 398 495 c
0.19 0.44 0.39 0 f
147 328 m
145 323 136 331 128 328 c
123 323 127 315 138 311 c
139 304 139 304 121 301 c
106 311 117 310 99 331 c
95 327 80 354 73 355 c
70 353 70 353 72 346 c
65 358 65 358 71 375 c
62 361 61 349 64 341 c
68 328 67 317 72 302 c
79 288 88 276 105 270 c
110 265 110 265 109 261 c
112 260 112 260 114 264 c
118 251 127 245 139 247 c
130 259 139 242 123 255 c
119 278 118 259 117 274 c
123 280 123 280 120 290 c
111 294 111 294 111 294 c
116 287 116 287 106 288 c
109 279 102 279 98 285 c
79 301 79 313 76 326 c
84 335 84 335 84 335 c
75 332 67 335 83 338 c
87 339 94 315 102 316 c
95 313 107 301 116 294 c
122 299 136 285 144 306 c
139 317 139 317 132 320 c
132 324 137 328 138 330 c
0.33 0.43 0.54 0 f
458 350 m
463 345 463 345 468 334 c
468 328 468 328 468 328 c
463 325 463 325 463 325 c
464 338 462 342 460 348 c
0.33 0.43 0.54 0 f
286 331 m
281 326 283 324 287 325 c
279 317 270 323 282 330 c
0.33 0.43 0.54 0 f
420 578 m
412 593 412 593 389 611 c
396 617 425 581 399 614 c
381 632 413 605 392 637 c
374 657 374 657 366 664 c
360 664 360 664 364 653 c
352 670 339 675 331 655 c
330 663 333 667 322 663 c
323 673 317 671 308 653 c
307 664 307 664 301 663 c
302 683 298 677 298 668 c
293 667 293 667 293 662 c
291 669 291 669 282 669 c
293 676 293 676 291 686 c
283 689 283 689 285 675 c
276 679 276 679 269 671 c
268 684 268 684 261 685 c
255 688 255 688 258 674 c
254 670 254 670 252 664 c
251 679 243 667 245 677 c
231 678 231 678 231 662 c
269 621 227 631 226 621 c
232 597 232 597 232 597 c
239 610 239 610 258 618 c
243 608 243 601 270 610 c
274 605 277 592 265 587 c
233 572 233 572 225 564 c
246 575 275 584 293 588 c
307 591 316 588 329 583 c
342 576 349 571 354 557 c
360 551 363 539 364 532 c
369 514 369 514 369 514 c
379 501 379 501 381 495 c
401 463 401 463 401 459 c
398 455 398 455 392 453 c
391 448 391 448 377 439 c
363 428 356 420 356 403 c
359 409 359 409 359 409 c
360 400 360 400 354 399 c
349 406 348 413 356 427 c
362 440 353 437 366 455 c
369 483 358 457 357 483 c
359 495 359 495 356 502 c
349 522 341 532 332 539 c
305 529 305 529 292 542 c
308 539 308 539 308 544 c
290 554 275 558 238 521 c
248 522 248 522 248 522 c
230 506 225 504 221 487 c
225 482 225 482 209 469 c
204 458 209 441 215 428 c
223 407 223 407 223 407 c
226 408 239 369 253 369 c
257 368 257 368 263 363 c
269 365 282 355 295 360 c
312 366 312 366 319 363 c
317 362 317 362 322 366 c
327 360 327 360 327 360 c
325 358 325 358 325 358 c
327 356 327 356 327 356 c
322 353 322 353 322 353 c
324 347 324 347 324 347 c
322 336 322 336 321 335 c
327 328 327 328 323 324 c
325 304 325 304 323 301 c
327 303 327 303 331 292 c
333 286 332 279 334 276 c
333 268 339 263 358 232 c
360 217 360 217 367 214 c
366 206 374 197 382 191 c
394 183 449 181 444 188 c
422 207 411 230 414 255 c
415 278 417 296 442 317 c
450 324 450 324 460 325 c
454 350 454 350 448 366 c
454 364 454 364 462 355 c
461 365 461 365 469 367 c
462 405 462 405 455 410 c
463 415 461 425 459 429 c
447 454 447 454 430 471 c
435 461 435 461 421 463 c
413 467 395 491 384 509 c
381 528 381 528 380 531 c
382 559 382 575 392 584 c
397 589 408 587 420 576 c
0.33 0.43 0.54 0 f
307 524 m
321 528 321 528 320 535 c
331 537 331 537 331 537 c
327 530 327 526 333 528 c
336 530 336 530 336 532 c
338 525 338 525 344 524 c
347 522 347 522 353 520 c
351 516 358 508 360 501 c
370 479 359 490 365 471 c
379 461 370 461 365 451 c
358 446 356 435 359 433 c
354 430 352 423 351 414 c
345 427 357 430 348 434 c
354 435 354 456 350 459 c
342 478 354 472 353 487 c
354 493 348 493 347 488 c
343 492 343 492 349 497 c
344 514 344 514 337 513 c
337 519 334 524 329 521 c
327 520 327 520 326 516 c
320 526 317 518 318 506 c
314 514 314 514 311 514 c
312 522 312 522 311 524 c
0.33 0.56 0.57 0 f
405 482 m
408 491 408 491 422 488 c
434 484 434 484 435 491 c
438 485 438 485 438 479 c
417 480 428 485 421 487 c
413 490 413 490 413 490 c
0.33 0.56 0.57 0 f
337 307 m
342 316 354 326 364 324 c
365 330 365 330 378 335 c
389 346 400 353 409 352 c
414 350 414 350 429 352 c
434 350 442 341 446 332 c
448 328 448 328 454 323 c
442 317 442 317 435 310 c
430 307 430 307 423 296 c
404 294 399 300 388 304 c
379 304 379 304 361 307 c
359 309 359 309 350 309 c
352 311 352 311 352 311 c
348 307 348 307 348 307 c
343 309 343 309 343 309 c
336 305 336 305 336 305 c
0.33 0.56 0.57 0 f
424 296 m
418 299 415 295 409 297 c
411 292 411 292 415 293 c
420 293 420 293 421 291 c
421 293 421 293 423 297 c
0.39 0.56 0.57 0 f
444 318 m
433 320 433 316 433 312 c
425 321 422 321 416 316 c
408 320 408 320 397 320 c
402 316 402 316 403 311 c
395 318 395 318 390 318 c
385 316 385 316 386 313 c
390 310 390 310 393 303 c
410 300 410 300 408 304 c
407 310 407 310 407 310 c
413 303 413 303 424 302 c
431 309 431 309 434 310 c
0.16 0.42 0.56 0 f
376 402 m
373 411 374 421 385 422 c
387 427 387 427 387 427 c
389 424 389 424 389 424 c
393 428 393 428 398 426 c
401 434 403 414 418 421 c
427 425 427 425 430 438 c
431 428 431 428 430 422 c
434 414 431 402 430 398 c
424 403 424 403 419 403 c
416 402 416 402 415 392 c
413 390 413 390 394 395 c
392 397 388 401 384 397 c
380 401 380 401 380 401 c
380 398 380 398 380 398 c
0.29 0.35 0.41 0 f
432 442 m
428 430 426 424 416 420 c
406 419 401 429 392 426 c
390 431 390 431 390 431 c
388 426 380 422 376 418 c
373 411 375 405 375 402 c
377 400 377 400 377 400 c
386 387 384 400 389 398 c
398 391 405 390 411 391 c
416 388 416 388 416 388 c
415 388 415 388 415 388 c
415 396 415 396 415 396 c
420 398 420 398 423 403 c
424 401 424 401 418 390 c
421 384 421 384 421 384 c
423 386 423 386 426 381 c
426 391 426 396 431 398 c
434 402 436 410 433 420 c
438 420 437 429 432 442 c
0.35 0.53 0.41 0 f
388 406 m
389 403 389 403 389 403 c
386 400 379 404 375 401 c
375 403 375 403 374 410 c
380 408 380 408 380 408 c
381 413 382 418 392 418 c
399 417 402 413 402 405 c
401 399 398 398 395 401 c
392 404 392 404 392 404 c
0.35 0.53 0.41 1 f
300 486 m
310 489 310 489 310 489 c
314 498 305 519 292 526 c
271 516 260 505 253 482 c
299 486 299 486 299 486 c
0 0 0 0 f
431 485 m
435 487 434 493 429 498 c
422 505 417 510 398 497 c
401 488 401 488 404 485 c
413 486 417 489 422 487 c
427 487 433 482 434 486 c
0 0 0 0 f
285 505 m
285 500 285 500 290 497 c
289 506 289 506 286 506 c
294 507 294 507 297 505 c
301 503 301 499 300 495 c
295 491 292 488 283 491 c
279 495 279 495 276 502 c
281 504 281 504 286 506 c
0.1 0 0.08 0.11 f
405 502 m
414 508 414 508 416 504 c
412 498 413 495 419 494 c
418 498 418 498 418 502 c
426 501 426 501 428 496 c
428 489 428 489 426 486 c
413 489 411 486 408 494 c
404 499 404 499 404 499 c
0.1 0 0.08 0.11 f
311 492 m
299 487 299 487 296 490 c
297 485 297 485 297 485 c
292 484 292 484 292 484 c
303 485 303 485 305 482 c
310 481 310 481 313 480 c
311 487 311 487 321 489 c
314 494 314 494 313 501 c
320 506 320 506 318 515 c
319 506 319 506 313 511 c
312 518 314 515 312 524 c
308 522 308 522 308 519 c
304 523 297 523 296 520 c
300 518 300 518 300 518 c
301 511 301 511 301 511 c
298 512 298 512 298 512 c
298 515 298 515 298 515 c
290 519 290 519 288 515 c
278 514 278 514 279 509 c
271 508 271 508 271 503 c
262 503 262 503 263 498 c
260 500 260 500 260 500 c
255 493 255 493 253 486 c
255 483 255 483 250 479 c
247 476 250 472 255 474 c
270 468 264 481 284 475 c
276 480 276 480 286 481 c
286 487 286 487 286 487 c
274 488 274 488 265 485 c
265 488 265 488 265 488 c
265 494 273 494 275 502 c
284 504 284 504 284 504 c
283 508 283 508 283 508 c
293 505 293 505 293 505 c
296 508 296 508 296 508 c
299 505 299 505 299 505 c
306 504 306 504 308 491 c
0 0 0 1 f
300 526 m
284 530 267 519 256 504 c
272 521 294 524 307 515 c
0 0 0 1 f
398 507 m
402 513 402 513 399 517 c
405 515 405 515 410 520 c
426 523 426 523 434 514 c
438 523 438 523 438 523 c
435 515 435 515 435 515 c
440 511 440 511 439 508 c
442 510 442 510 442 510 c
447 496 444 493 444 491 c
449 489 451 496 452 501 c
452 503 452 503 448 508 c
453 509 453 509 453 509 c
451 513 451 513 449 515 c
452 515 452 515 452 515 c
450 517 450 517 450 517 c
452 520 452 520 452 520 c
451 522 451 522 451 522 c
450 522 450 522 450 522 c
453 526 453 526 452 532 c
447 533 447 533 443 531 c
445 537 445 537 445 537 c
451 539 451 539 451 539 c
450 540 450 540 450 540 c
446 542 446 542 446 542 c
445 539 445 539 445 539 c
428 539 428 539 427 535 c
424 536 424 536 424 536 c
427 541 427 541 427 541 c
424 541 424 541 424 541 c
421 539 421 539 421 539 c
422 536 422 536 422 536 c
416 536 416 536 414 533 c
403 534 403 534 394 527 c
404 532 404 532 404 527 c
399 526 396 524 396 519 c
389 511 389 511 388 514 c
385 511 385 511 388 502 c
393 505 393 505 393 508 c
395 506 395 506 398 507 c
401 505 401 505 404 508 c
400 515 404 504 413 514 c
411 516 411 516 404 512 c
400 511 400 511 400 511 c
0 0.45 0.61 0 f
507 252 m
497 252 488 245 488 235 c
489 230 490 226 498 228 c
513 228 513 228 511 231 c
506 241 506 241 510 244 c
517 246 516 248 509 251 c
0 1 1 0.17 f
113 489 m
109 491 109 491 109 473 c
114 466 114 466 114 488 c
0 0.16 1 0.17 f

end
showpage
