%!PS-Adobe-2.0 EPSF-1.2
%%Creator:Adobe Illustrator(TM) 1.2d4
%%For:Judy 
%%Title:NordMobile.EPS
%%CreationDate:1/20/88 10:36 AM
%%DocumentProcSets:Adobe_Illustrator_1.2d1 0 0
%%DocumentSuppliedProcSets:Adobe_Illustrator_1.2d1 0 0
%%DocumentFonts:Courier
%%+Times-Roman
%%BoundingBox:-112 -5 166 104
%%TemplateBox:288 -360 288 -360
%%Pages: 1
%%EndComments
/xps_scaletofit where { pop -112 -5 166 2 mul 104 2 mul xps_scaletofit } if
%%BeginProcSet:Adobe_Illustrator_1.2d1 0 0
% Copyright (C) 1987 Adobe Systems Incorporated.
% All Rights Reserved.
% Adobe Illustrator is a trademark of Adobe Systems Incorporated.
/Adobe_Illustrator_1.2d1 dup 100 dict def load begin
/Version 0 def
/Revision 0 def
% definition operators
/bdef {bind def} bind def
/ldef {load def} bdef
/xdef {exch def} bdef
% graphic state operators
/_K {3 index add neg dup 0 lt {pop 0} if 3 1 roll} bdef
/_k /setcmybcolor where 
{/setcmybcolor get} {{1 sub 4 1 roll _K _K _K setrgbcolor pop} bind} ifelse def
/g {/_b xdef /p {_b setgray} def} bdef
/G {/_B xdef /P {_B setgray} def} bdef
/k {/_b xdef /_y xdef /_m xdef /_c xdef /p {_c _m _y _b _k} def} bdef
/K {/_B xdef /_Y xdef /_M xdef /_C xdef /P {_C _M _Y _B _k} def} bdef
/d /setdash ldef
/_i currentflat def
/i {dup 0 eq {pop _i} if setflat} bdef
/j /setlinejoin ldef
/J /setlinecap ldef
/M /setmiterlimit ldef
/w /setlinewidth ldef
% path construction operators
/_R {.25 sub round .25 add} bdef
/_r {transform _R exch _R exch itransform} bdef
/c {_r curveto} bdef
/C /c ldef
/v {currentpoint 6 2 roll _r curveto} bdef
/V /v ldef
/y {_r 2 copy curveto} bdef
/Y /y ldef
/l {_r lineto} bdef
/L /l ldef
/m {_r moveto} bdef
% error operators
/_e [] def
/_E {_e length 0 ne {gsave 0 g 0 G 0 i 0 J 0 j 1 w 10 M [] 0 d
/Courier 20 0 0 1 z [0.966 0.259 -0.259 0.966
_e 0 get _e 2 get add 2 div _e 1 get _e 3 get add 2 div] e _f t T grestore} if} bdef
/_fill {{fill} stopped
{/_e [pathbbox] def /_f (ERROR: can't fill, increase flatness) def n _E} if} bdef
/_stroke {{stroke} stopped
{/_e [pathbbox] def /_f (ERROR: can't stroke, increase flatness) def n _E} if} bdef
% path painting operators
/n /newpath ldef
/N /n ldef
/F {p _fill} bdef
/f {closepath F} bdef
/S {P _stroke} bdef
/s {closepath S} bdef
/B {gsave F grestore S} bdef
/b {closepath B} bdef
% text block construction and painting operators
/_s /ashow ldef
/_S {(?) exch {2 copy 0 exch put pop dup false charpath currentpoint _g setmatrix
_stroke _G setmatrix moveto 3 copy pop rmoveto} forall pop pop pop n} bdef
/_A {_a moveto _t exch 0 exch} bdef
/_L {0 _l neg translate _G currentmatrix pop} bdef
/_w {dup stringwidth exch 3 -1 roll length 1 sub _t mul add exch} bdef
/_z [{0 0} bind {dup _w exch neg 2 div exch neg 2 div} bind {dup _w exch neg exch neg} bind] def
/z {_z exch get /_a xdef /_t xdef /_l xdef exch findfont exch scalefont setfont} bdef
/_g matrix def
/_G matrix def
/_D {_g currentmatrix pop gsave concat _G currentmatrix pop} bdef
/e {_D p /t {_A _s _L} def} bdef
/r {_D P /t {_A _S _L} def} bdef
/a {_D /t {dup p _A _s P _A _S _L} def} bdef
/o {_D /t {pop _L} def} bdef
/T {grestore} bdef
% group construction operators
/u {} bdef
/U {} bdef
% font construction operators
/Z {findfont begin currentdict dup length 1 add dict begin
{1 index /FID ne {def} {pop pop} ifelse} forall /FontName exch def dup length 0 ne
{/Encoding Encoding 256 array copy def 0 exch {dup type /nametype eq
{Encoding 2 index 2 index put pop 1 add} {exch pop} ifelse} forall} if pop
currentdict dup end end /FontName get exch definefont pop} bdef
end
%%EndProcSet
%%EndProlog
%%Page: 1
%%BeginSetup
Adobe_Illustrator_1.2d1 begin
0 g
0 G
0 i
0 J
0 j
0.172 w
10 M
[]0 d
%%EndSetup
/porsche1 {
129.37 18.034 m
66.213 20.806 L
76.144 56.504 l
127.526 53.752 L
129.37 18.034 L
b
0.516 w
115.591 9.526 m
120.056 13.618 122.736 19.529 122.344 26.281 c
121.571 39.605 108.957 49.156 96.015 48.491 c
83.071 47.826 73.811 38.142 74.947 25.428 c
76.082 12.715 87.738 3.404 100.437 3.612 c
106.291 3.707 111.64 5.905 115.591 9.526 c
B
0.05 g
0.05 G
0.034 w
-83.756 27.005 m
-83.627 26.231 -81.863 24.725 -81.433 24.51 C
-80.658 24.725 -80.228 25.93 -80.141 26.231 C
-83.756 27.005 L
b
0 g
0 G
0.172 w
-37.11 49.037 m
-37.11 28.899 L
-84.789 31.48 L
-79.969 51.963 l
-37.11 49.037 L
B
0.011 w
-53.822 8.024 m
-72.231 12.308 l
-79.047 30.46 l
-72.665 45.532 l
-67.724 48.85 L
-64.858 50.676 -61.474 51.696 -57.812 51.696 c
-47.127 51.696 -37.461 42.073 -37.802 29.466 c
-37.989 22.599 -40.933 16.689 -45.405 13.059 C
-46.577 11.701 -51.483 8.956 -53.822 8.024 C
b
0.75 G
0.119 w
-45.526 47.072 m
-40.76 43.063 -37.605 36.764 -37.802 29.466 c
-37.989 22.599 -40.933 16.689 -45.405 13.059 C
-46.577 11.701 -51.483 8.956 -53.822 8.024 C
S
0.1 g
0.3 G
0.516 w
-61.932 6.479 m
-51.671 6.067 -42.591 14.415 -42.264 26.461 c
-41.922 39.068 -51.588 48.69 -62.274 48.69 c
-72.961 48.69 -81.282 40.004 -81.282 27.954 c
-81.282 15.903 -72.384 6.897 -61.932 6.479 c
b
0 g
0 G
0.011 w
-61.741 11.343 m
-54.082 11.036 -47.305 17.523 -47.062 26.514 c
-46.807 35.925 -54.02 43.106 -61.997 43.106 c
-69.972 43.106 -76.184 36.623 -76.184 27.629 c
-76.184 18.635 -69.542 11.655 -61.741 11.343 c
b
0.9 g
-61.697 12.005 m
-54.26 11.707 -47.681 18.005 -47.444 26.734 c
-47.197 35.87 -54.2 42.843 -61.945 42.843 c
-69.688 42.843 -75.718 36.549 -75.718 27.816 c
-75.718 19.084 -69.271 12.308 -61.697 12.005 c
b
0 g
0.9 G
-47.779 25.48 m
-47.735 25.907 -47.707 26.341 -47.695 26.78 c
-47.452 35.734 -54.377 42.626 -61.967 42.626 c
-64.178 42.626 -66.185 42.043 -68.007 41.088 c
S
}def

/porsche_1 {
0 G
-61.449 13.991 m
-54.756 13.724 -48.562 19.149 -48.622 27.006 c
-48.683 35.149 -55.144 41.87 -62.937 41.4 c
-68.895 41.042 -74.069 35.84 -74.069 27.981 c
-74.069 20.121 -68.266 14.264 -61.449 13.991 c
s
1 g
0.85 G
-48.956 22.795 m
-50.674 17.116 -55.893 13.493 -61.449 13.715 c
-68.402 13.994 -74.321 19.968 -74.321 27.984 C
-74.631 26.962 -74.798 27.165 -74.86 25.782 C
-73.992 18.445 -68.276 12.971 -61.654 12.706 c
-56.233 12.488 -51.292 15.961 -49.184 21.334 C
-48.75 22.235 -48.956 22.795 Y
b
0.2 g
0.1 G
-56.176 39.911 m
-57.885 40.666 -60.358 41.201 -62.341 41.081 c
-68.001 40.741 -72.917 35.799 -72.917 28.334 c
-72.917 20.867 -67.404 15.303 -60.928 15.043 c
-55.501 14.826 -50.184 18.62 -48.849 24.36 C
-48.836 24.419 L
-49.98 17.986 -55.52 13.754 -61.449 13.991 c
-68.266 14.264 -74.069 20.121 -74.069 27.981 c
-74.069 35.84 -68.895 41.042 -62.937 41.4 c
-60.501 41.547 -58.196 40.992 -56.176 39.911 C
-56.176 39.911 L
b
0.15 g
-72.917 28.334 m
-72.917 35.799 -68.001 40.741 -62.341 41.081 c
-60.358 41.201 -57.885 40.666 -56.176 39.911 C
-56.176 39.911 L
-58.196 40.992 -60.501 41.547 -62.937 41.4 c
-68.895 41.042 -74.069 35.84 -74.069 27.981 C
-72.917 28.334 L
b
0 g
0 G
-48.79 24.572 m
-49.849 19.261 -54.379 16.961 -58.865 17.141 c
-64.319 17.36 -69.591 23.008 -69.704 29.294 c
-69.828 36.183 -64.45 40.224 -59.683 40.511 c
-58.414 40.588 -57.216 40.33 -56.109 39.827 C
-52.545 38.144 -47.644 32.447 -48.79 24.572 C
b
0.2 G
0.123 w
-48.82 25.113 m
-48.827 25.048 -48.836 24.984 -48.847 24.919 C
-49.873 19.766 -54.267 17.537 -58.619 17.71 c
-63.908 17.922 -69.023 23.402 -69.133 29.499 c
-69.253 36.181 -64.036 40.101 -59.412 40.379 c
-58.78 40.418 -58.165 40.37 -57.571 40.249 C
S
}def

/porsche2 {
0.4 g
0.4 G
0.154 w
-61.96 27.035 m
-66.529 24.315 L
-66.77 24.172 -66.871 23.969 -66.778 23.728 C
-66.375 22.587 -64.889 21.175 -64.393 20.814 C
-64.144 20.694 -63.912 20.731 -63.741 21.039 C
-60.798 25.803 l
B
0.25 g
0.1 G
-61.96 27.035 m
-66.096 24.736 L
-66.337 24.593 -66.438 24.39 -66.345 24.149 C
-65.942 23.007 -64.454 21.595 -63.959 21.235 C
-63.71 21.113 -63.478 21.152 -63.308 21.46 C
-60.798 25.803 l
B
-62.252 28.288 m
-67.894 28.766 L
-68.255 28.779 -68.391 28.965 -68.388 29.234 C
-68.402 30.411 -68.402 31.149 -67.817 33.118 C
-67.589 33.469 -67.372 33.29 -67.135 33.143 C
-61.837 29.871 L
-62.252 28.288 L
b
0.1 g
0.011 w
-59.389 25.015 m
-57.764 24.95 -56.327 26.326 -56.275 28.233 c
-56.221 30.23 -57.751 31.753 -59.443 31.753 c
-61.135 31.753 -62.452 30.378 -62.452 28.469 c
-62.452 26.561 -61.044 25.081 -59.389 25.015 c
b
0 g
0 G
-59.336 24.838 m
-57.63 24.769 -56.12 26.213 -56.066 28.216 c
-56.009 30.313 -57.616 31.911 -59.392 31.911 c
-61.169 31.911 -62.553 30.468 -62.553 28.465 c
-62.553 26.461 -61.074 24.907 -59.336 24.838 c
n
0.2 g
0.8 G
-59.585 25.455 m
-58.172 25.397 -56.922 26.595 -56.876 28.253 c
-56.831 29.989 -58.16 31.313 -59.632 31.313 c
-61.103 31.313 -62.249 30.117 -62.249 28.459 c
-62.249 26.8 -61.024 25.512 -59.585 25.455 c
b
0 g
0.2 G
0.247 w
-54.973 39.176 m
S
}def

/porsche_2 {
0.25 g
0.1 G
0.154 w
-56.873 25.595 m
-52.84 21.418 L
-52.582 21.175 -52.609 20.948 -52.795 20.749 C
-53.197 20.356 -55.038 19.239 -56.28 19.178 C
-56.545 19.158 -56.717 19.308 -56.792 19.571 C
-58.29 24.732 L
-57.741 24.875 -57.074 25.363 -56.873 25.595 C
b
-56.029 30.097 m
-50.837 32.653 L
-50.523 32.827 -50.306 32.74 -50.161 32.511 C
-49.877 31.83 -49.294 30.844 -49.359 28.901 C
-49.411 28.65 -49.64 28.47 -49.92 28.471 C
-55.669 28.484 L
-55.638 28.665 -55.749 29.661 -56.029 30.097 C
b
-58.695 32.152 m
-57.074 37.478 L
-56.994 37.741 -57.059 37.956 -57.293 38.075 C
-58.753 38.632 -60.554 38.446 -61.171 38.392 C
-61.303 38.356 -61.636 38.346 -61.498 37.803 C
-60.338 32.089 L
-59.943 32.254 -59.12 32.266 -58.695 32.152 C
b
0 g
0.2 G
-56.693 19.341 m
-56.507 18.861 -56.227 18.515 -55.562 18.59 c
S
0.4 G
-51.556 20.931 m
-52.042 20.657 -52.479 20.945 -52.78 21.361 C
-56.864 25.593 l
S
-67.94 34.037 m
-68.126 33.707 -67.877 33.481 -67.382 33.286 C
-62.285 30.13 l
S
0.5 G
-62.502 30.941 m
-67.677 33.917 L
S
0.2 G
-61.511 38.034 m
-61.604 38.636 -61.542 39.176 -61.139 39.356 c
S
}def

/porsche3 {
0.7 G
-56.967 38.337 m
-56.89 38.618 -56.741 38.823 -56.456 38.889 c
S
0.2 G
-56.461 38.065 m
-58.196 32.265 l
S
0.1 G
0.091 w
-60.861 24.991 m
-63.494 20.123 L
-63.587 20.002 -63.528 19.877 -63.339 19.762 c
-62.843 19.461 -61.201 18.289 -58.846 18.139 c
S
-62.378 27.065 m
-67.166 24.601 L
-67.506 24.404 -67.584 24.691 -67.645 24.796 C
-67.97 25.457 -68.156 26.102 -68.249 26.403 c
S
0.5 G
0.154 w
-52.154 21.745 m
-56.461 25.923 L
S
0.4 G
-56.026 30.101 m
-50.791 32.67 L
-50.295 32.865 -50.28 32.896 -50.093 32.834 c
S
0 G
0.034 w
-100.824 45.73 m
-101.779 45.883 -105.453 45.7 -106.062 45.898 C
-106.082 45.898 -106.145 45.97 Y
-106.145 41.73 L
-100.831 41.73 l
-100.824 45.73 L
b
1 J
0.344 w
-75.644 67.713 m
-79.603 65.476 -85.736 61.602 -86.941 60.828 C
-87.07 60.763 -87.091 61.065 -86.984 61.129 c
S
} def

/porsche_3 {
u
0 J
0.034 w
128.776 26.326 m
145.816 26.326 L
145.816 40.612 L
128.776 40.612 L
128.776 26.326 L
b
137.296 33.468 m
B
U
u
0.5 g
0.5 G
135.918 18.924 m
150.119 18.924 L
150.119 22.796 L
135.918 22.796 L
135.918 18.924 L
b
143.019 20.861 m
B
U
0.95 g
0.3 G
0.257 w
160.954 37.686 m
161.213 34.588 L
160.223 32.823 158.416 31.317 156.695 30.93 C
156.566 33.555 L
156.566 34.287 156.264 35.147 156.092 35.276 C
158.846 35.62 160.61 36.997 160.954 37.686 C
b
0.05 g
0 G
0.034 w
160.954 37.686 m
161.213 34.588 L
161.902 34.544 l
162.503 35.276 L
162.331 37.943 L
161.342 38.374 L
161.213 38.073 161.041 37.901 160.954 37.686 C
b
0.2 g
0.2 G
161.342 38.374 m
162.331 37.943 L
162.632 39.708 161.427 42.096 161.17 41.924 C
161.772 40.289 161.73 39.085 161.342 38.374 C
b
0.45 g
0.45 G
142.925 36.352 m
163.794 35.534 162.116 38.976 160.954 42.419 C
162.632 38.891 161.005 36.481 157.262 35.492 C
152.658 34.028 143.923 34.501 143.407 34.501 C
142.925 36.352 L
b
0 g
0.3 G
0.085 w
160.954 42.419 m
162.116 38.976 163.794 35.534 142.925 36.352 c
S
%ColorDisplay? {1 1 0 setrgbcolor}{1 G} ifelse
161.385 39.579 m
161.037 35.631 146.84 36.438 142.968 36.481 c
S
}def

/porsche4 {
0.2 g
0 G
0.034 w
143.936 34.501 m
144.215 33.124 L
144.258 33.082 L
150.374 32.6 153.887 33.096 156.566 33.555 C
156.566 33.555 L
156.566 34.415 156.112 35.225 V
153.457 34.641 150.067 34.308 143.936 34.501 C
b
0 g
144.999 30.08 m
144.323 32.995 L
144.345 33.082 L
150.461 32.6 153.887 33.096 156.566 33.555 C
156.575 33.566 L
156.738 30.542 L
153.381 30.026 149.01 30.05 144.999 30.08 C
b
0.6 g
0.6 G
156.695 30.93 m
158.416 31.317 160.223 32.823 161.213 34.588 C
161.902 34.544 L
161.643 33.339 160.137 31.274 156.738 30.542 C
156.695 30.93 L
b
0.1 g
0.1 G
35.303 63.934 m
35.282 64.882 34.874 66.516 35.475 70.131 C
35.734 70.949 36.035 71.294 36.595 71.594 C
37.936 72.038 39.357 72.446 41.629 72.799 C
39.865 73.316 39.636 73.35 37.369 72.971 C
35.046 72.368 33.669 72.024 33.497 70.734 C
33.238 66.603 32.98 64.537 34.271 64.193 C
34.357 63.849 34.787 64.021 35.303 63.934 C
b
0.98 g
0.8 G
0.318 w
}def

/porsche_4 {
-4.457 19.526 m
-25.112 21.247 -29.76 17.977 -34.579 18.149 C
-35.871 18.064 -35.784 18.236 -36.043 18.752 C
-36.645 19.87 -37.333 21.506 -37.248 21.678 C
-37.505 22.151 -39.141 25.186 -39.098 26.067 C
-39.743 37.599 -49.898 51.197 -65.217 49.992 C
-71.586 49.648 -84.238 46.894 -83.807 27.444 C
-83.85 26.755 -83.118 25.809 -82.086 25.034 C
-79.831 23.829 -83.446 23.873 -85.167 26.927 C
-90.762 26.842 -92.052 28.993 -95.839 28.907 C
-97.044 28.821 -97.131 29.036 -97.432 29.381 C
-101.39 35.448 L
-105.221 40.44 L
-106.489 40.784 -107.13 42.011 -105.414 43.344 C
-105.36 43.397 L
-104.751 44.081 -102.722 45.383 -100.702 46.077 C
-95.667 46.033 L
-100.659 48.959 L
-100.486 50.336 -101.175 50.079 -99.368 51.8 C
-94.806 55.587 -91.278 58.082 -86.889 60.836 C
-87.233 62.041 -88.403 64.959 -89.436 66.508 C
-85.477 72.533 l
-61.28 77.318 L
-60.458 76.883 L
-54.394 80.42 -41.843 85.956 -35.956 87.515 C
-31.653 88.204 -31.602 92.585 -22.911 94.909 C
5.318 100.761 17.23 100.769 29.882 100.511 C
30.398 100.511 33.926 100.167 34.013 99.134 C
64.035 79.934 L
64.099 79.934 L
77.869 80.623 99.205 80.157 120.333 77.188 C
121.151 77.146 121.021 77.059 121.194 76.93 C
123.475 77.146 124.034 75.983 V
126.96 71.594 127.52 69.4 129.671 65.355 C
130.445 63.892 129.714 64.064 130.273 63.548 C
132.253 63.289 134.404 63.246 V
135.136 63.289 135.567 63.246 135.824 62.644 C
138.622 62.816 139.009 61.267 141.075 58.426 C
143.57 58.426 L
151.058 54.21 162.676 44.312 161.557 38.976 C
160.954 37.213 159.771 33.985 143.419 34.501 C
142.968 36.222 l
141.591 39.493 L
130.833 39.493 L
131.177 40.096 128.682 39.967 128.509 39.579 C
125.841 37.815 123.948 38.46 120.333 38.632 C
105.014 54.812 86.339 50.939 78.162 41.902 C
71.277 33.64 71.45 27.788 69.556 22.969 C
69.384 20.903 l
68.438 18.752 L
68.179 16.342 68.179 15.739 v
68.179 15.138 67.922 14.534 67.663 15.051 C
62.93 16.428 59.229 16.428 V
38.445 17.461 L
25.027 17.969 -3.648 19.535 -4.457 19.526 C
b
0.65 g
0.5 G
0.344 w
-101.305 35.276 m
-97.432 29.381 L
-97.131 29.036 -97.044 28.821 -95.839 28.907 C
-92.052 28.993 -90.762 26.842 -85.167 26.927 C
-83.446 23.873 -79.831 23.829 -82.086 25.034 C
-83.118 25.809 -83.85 26.755 -83.807 27.444 C
-84.238 46.894 -71.586 49.648 -65.217 49.992 C
-49.898 51.197 -39.743 37.599 -39.098 26.067 C
-39.141 25.186 -37.505 22.151 -37.248 21.678 C
-37.333 21.506 -36.645 19.87 -36.043 18.752 C
-35.784 18.236 -35.871 18.064 -34.579 18.149 C
-29.76 17.977 -25.112 21.247 -4.457 19.526 C
38.445 17.461 L
59.229 16.428 L
62.93 16.428 67.663 15.051 Y
67.922 14.534 68.179 15.138 68.179 15.739 c
68.179 16.342 68.438 18.752 Y
69.384 20.903 l
69.556 22.969 L
71.45 27.788 71.277 33.64 78.162 41.902 C
86.339 50.939 105.014 54.812 120.333 38.632 C
122.235 38.632 124.558 38.288 125.075 38.46 C
118.018 45.173 109.756 51.8 97.707 52.402 C
85.486 52.661 76.965 46.033 71.285 38.719 C
70.167 37.169 68.359 37.169 68.703 41.042 C
69.134 51.8 65.089 52.746 60.269 53.177 C
40.647 52.316 -10.13 53.866 -25.449 54.554 C
-37.67 55.243 -25.277 41.128 -30.441 40.096 C
-40.768 37.342 L
}def

/porsche5 {
-47.997 50.595 -58.669 52.833 -65.726 52.661 C
-74.419 51.628 -77.086 48.959 -79.84 46.636 C
-78.636 48.013 -77.775 48.53 -78.636 48.53 C
-82.939 47.497 -85.693 47.325 -83.111 50.251 C
-82.078 51.628 -96.881 52.316 -98.43 48.702 c
-99.979 45.087 -97.914 44.227 y
-101.305 35.276 L
b
0 g
0 G
-101.305 35.276 m
-97.432 29.381 L
-97.131 29.036 -97.044 28.821 -95.839 28.907 C
-92.052 28.993 -90.762 26.842 -85.167 26.927 C
-84.214 25.236 -82.68 24.468 -81.884 24.323 C
S
-37.505 22.151 m
-37.59 21.979 -36.645 19.87 -36.043 18.752 C
-35.784 18.236 -35.871 18.064 -34.579 18.149 C
-29.76 17.977 -25.112 21.247 -4.457 19.526 C
38.445 17.461 L
59.229 16.428 L
62.93 16.428 67.663 15.051 Y
67.922 14.534 68.179 15.138 68.179 15.739 c
68.179 16.342 68.438 18.752 Y
69.384 21.075 l
S
0.35 G
23.184 86.698 m
20.689 89.668 19.011 91.518 16.946 91.948 C
-26.602 94.358 -52.55 79.856 -70.107 70.39 c
S
0.5 g
0.5 G
0.034 w
-71.535 68.909 m
-54.042 78.495 -26.6 94.032 16.962 91.915 C
17.311 91.846 18.078 91.611 18.583 91.247 C
18.605 91.247 L
18.101 91.613 17.336 91.855 16.988 91.927 C
-26.56 94.337 -53.969 79.061 -71.527 69.594 C
-71.535 68.909 L
b
0 g
0.2 G
0.344 w
16.962 91.915 m
17.311 91.846 18.078 91.611 18.583 91.247 C
18.605 91.247 L
18.101 91.613 17.336 91.855 16.988 91.927 C
S
0.05 g
0 G
0.172 w
33.303 66.043 m
33.238 67.119 33.367 68.668 33.497 70.734 C
33.604 71.538 34.179 71.976 35.161 72.336 C
21.98 88.118 L
19.914 90.356 19.57 90.7 16.816 91.045 C
-11.275 91.37 -26.055 88.227 -43.772 80.373 C
-62.878 70.562 -60.984 66.431 -22.773 65.914 C
0.12 65.57 25.691 66.172 33.303 66.043 C
b
0.95 g
0.9 G
0.034 w
-18.22 80.201 m
-21.231 80.029 L
-21.92 83.299 L
-20.199 84.676 -18.952 85.881 -17.747 86.225 c
-16.542 86.569 -10.13 87.731 -4.363 88.247 C
-6.773 87.042 -7.376 88.463 -7.032 79.856 C
-8.581 83.815 -9.958 85.192 -10.646 85.192 C
-13.572 84.848 -15.81 84.16 -17.187 83.299 C
-18.133 81.893 -18.111 81.913 -18.22 80.201 C
b
0 g
0.45 G
0.172 w
70.073 78.221 m
79.195 78.393 111.382 72.024 129.714 64.106 c
S
}def

/porsche_5 {
0.45 g
0.034 w
67.922 80.029 m
75.581 78.307 80.408 77.24 V
75.938 77.912 72.311 78.264 70.073 78.221 C
70.331 76.671 69.564 75.037 68.359 73.401 C
67.069 73.917 66.121 73.745 65.261 73.66 C
64.831 74.004 62.679 74.262 61.818 73.917 C
65.089 76.758 64.916 78.565 64.572 79.856 C
65.692 80.029 66.286 80.201 67.922 80.029 C
b
0.65 g
0.65 G
68.35 73.393 m
68.93 74.156 69.422 74.96 69.758 75.799 C
83.154 76.327 109.103 69.529 116.504 64.795 C
110.565 65.226 109.145 65.311 107.251 65.483 C
90.211 71.336 71.79 73.214 68.35 73.393 C
b
0 g
0.6 G
69.758 75.799 m
83.154 76.327 109.188 69.529 116.59 64.795 C
S
0.15 G
0.257 w
121.194 76.93 m
123.174 75.467 126.357 68.926 128.337 65.054 c
S
0.05 G
0.034 w
127.152 67.387 m
127.576 66.552 127.977 65.759 128.337 65.054 c
S
0.98 g
0.95 G
124.292 75.639 m
125.411 75.467 125.583 76.242 126.616 74.606 c
127.705 72.882 129.542 68.84 129.972 64.623 C
128.079 68.668 126.702 71.852 124.292 75.639 C
b
0 g
0.7 G
124.292 75.639 m
125.411 75.467 125.583 76.242 126.616 74.606 c
127.705 72.882 129.542 68.84 129.972 64.623 C
S
%ColorDisplay? {1 1 0 setrgbcolor}{1 G} ifelse
0.068 w
129.628 65.914 m
128.251 69.098 126.616 72.671 124.636 75.553 C
S
}def

/porsche6 {
0 G
1 J
0.344 w
-60.412 77.266 m
-66.844 74.319 -74.117 69.348 -75.666 67.713 c
S
0.2 G
0 J
16.988 91.927 m
-26.56 94.337 -54.142 78.974 -71.7 69.507 C
S
0.25 g
0.15 G
-96.528 54.038 m
-88.093 56.705 -77.336 58.857 -74.238 59.374 C
-71.828 61.611 L
-72 63.505 -71.828 68.324 -71.656 69.701 C
B
0.65 g
0.6 G
-96.27 54.123 m
B
0.25 g
0.1 G
0.034 w
23.529 89.581 m
22.152 91.389 21.98 92.766 22.755 93.626 C
25.853 96.897 31.533 98.962 34.459 99.134 C
62.947 81.147 L
63.291 80.802 63.204 80.975 63.635 80.717 C
68.11 75.811 51.456 66.646 45.347 67.936 C
44.959 72.713 44.185 71.939 40.139 73.229 C
38.819 73.321 38.625 73.243 36.91 72.85 C
23.529 89.581 L
b
0 g
0.65 G
3.39 99.22 m
1.892 98.673 0.301 97.876 -0.718 97.173 C
-0.426 97.391 l
S
0.55 g
0.55 G
161.902 34.544 m
161.643 33.339 160.137 31.274 156.738 30.542 C
153.381 30.026 149.01 30.05 144.999 30.08 C
145.472 27.53 L
156.573 27.53 161.049 27.788 161.902 34.544 C
b
0 g
0 G
0.2 w
145.472 27.53 m
156.573 27.53 161.049 27.788 161.902 34.544 C
S
0.05 g
0.034 w
120.333 38.632 m
123.948 38.46 125.841 37.815 128.509 39.579 C
128.619 39.827 129.682 39.969 130.342 39.881 C
129.637 39.837 128.861 39.751 129.206 39.063 C
131.014 36.481 133.595 28.047 134.025 24.432 C
134.8 17.461 142.202 19.613 145.902 19.613 C
147.623 19.698 149.775 20.473 149.688 21.85 C
150.549 22.452 151.152 23.141 151.238 23.744 C
152.357 19.785 150.893 15.998 143.751 15.31 C
137.382 14.793 128.432 10.834 127.399 14.621 C
128.087 26.326 126.005 31.834 120.333 38.632 C
B
0 g
0.2 G
0.2 w
127.524 18.28 m
127.583 27.558 125.378 32.584 120.333 38.632 C
S
}def

/porsche_6 {
0.3 g
0.15 G
0.034 w
145.385 27.53 m
144.611 27.53 133.423 27.53 Y
134.456 20.903 135.058 21.162 136.349 20.215 C
137.123 19.354 146.762 20.301 149.688 21.85 C
150.721 22.195 152.529 25.981 152.959 27.616 C
150.98 27.53 146.333 27.444 145.385 27.53 C
b
0.7 g
0.8 G
149.688 21.85 m
148.092 21.005 142.158 19.776 137.855 19.863 C
144.74 19.432 150.076 19.948 149.688 21.85 C
b
0 g
0 G
1 J
1.377 w
131.53 36.566 m
134.628 27.358 l
S
0.4 G
1.032 w
131.53 36.566 m
134.628 27.358 l
S
0.9 G
130.153 39.063 m
131.53 36.566 l
S
0 G
1.377 w
141.857 36.566 m
144.956 27.358 l
S
0.516 w
140.738 36.566 m
143.836 27.358 l
S
139.62 36.566 m
142.718 27.358 l
S
138.5 36.566 m
141.599 27.358 l
S
137.382 36.566 m
140.48 27.358 l
S
136.263 36.566 m
139.361 27.358 l
S
135.145 36.566 m
138.243 27.358 l
S
134.025 36.566 m
137.123 27.358 l
S
132.82 36.653 m
135.918 27.444 l
S
0.4 G
1.032 w
141.857 36.566 m
144.956 27.358 l
S
0.9 G
140.997 38.632 m
141.857 36.566 l
S
0.75 G
0.172 w
140.738 36.566 m
143.836 27.358 l
S
0.9 G
139.792 38.719 m
140.653 36.653 l
S
0.75 G
139.62 36.566 m
142.718 27.358 l
S
0.9 G
138.673 38.719 m
139.533 36.653 l
S
} def

/porsche7 {
0.75 G
138.5 36.566 m
141.599 27.358 l
S
0.9 G
137.554 38.719 m
138.415 36.653 l
S
0.75 G
137.382 36.566 m
140.48 27.358 l
S
0.9 G
136.435 38.719 m
137.296 36.653 l
S
0.75 G
136.263 36.566 m
139.361 27.358 l
S
0.9 G
135.317 38.719 m
136.177 36.653 l
S
0.75 G
135.145 36.566 m
138.243 27.358 l
S
0.9 G
134.197 38.719 m
135.058 36.653 l
S
0.75 G
134.025 36.566 m
137.123 27.358 l
S
0.9 G
133.079 38.719 m
133.94 36.653 l
S
0.75 G
132.82 36.653 m
135.918 27.444 l
S
0.9 G
131.96 38.719 m
132.82 36.653 l
S
0 G
0 J
0.034 w
141.591 39.493 m
147.184 39.45 146.969 40.052 148.346 40.741 C
148.869 41.159 L
148.657 40.593 146.653 38.483 141.805 38.976 C
141.591 39.493 L
b
0.45 G
0.344 w
134.994 63.204 m
131.136 63.293 125.078 64.247 116.38 64.853 c
S
116.38 64.853 m
92.141 66.544 54.588 68.213 45.466 66.947 c
S
0.4 G
45.466 66.947 m
49.138 67.457 57.421 67.491 67.586 67.239 C
67.586 67.239 L
60.427 67.667 54.199 67.921 49.856 67.899 C
47.919 67.34 45.983 67.42 45.466 67.463 C
45.466 66.947 L
s
0.2 G
0.034 w
62.586 67.98 m
69.973 73.229 70.229 76.902 70.159 78.996 C
70.474 78.491 L
70.792 77.38 70.308 75.535 69.764 74.615 C
69.677 74.443 L
67.688 71.167 64.817 69.021 62.586 67.98 c
B
0.35 g
0.1 G
1 J
-85.133 73.135 m
-69.47 73.135 L
-67.404 74.339 -58.109 78.901 -55.183 79.59 C
-60.262 79.246 -67.147 78.901 -68.437 78.385 C
-80.313 76.147 -88.92 73.995 -91.674 73.479 C
-89.179 73.393 -85.133 73.135 Y
b
0.6 g
0.2 G
0 J
-89.436 66.487 m
-84.617 65.842 -76.871 67.046 -75.581 67.648 C
-75.644 67.563 L
-80.851 64.766 -85.633 61.684 -86.889 60.816 C
-87.242 62.27 -88.92 65.927 -89.436 66.487 C
b
0.95 g
0.9 G
3.382 88.72 m
8.718 88.72 16.033 88.72 17.497 88.548 C
19.952 88.415 21.61 84.866 26.103 79.856 C
8.804 79.425 l
3.382 88.72 L
b
0.4 g
0.4 G
-25.621 81.578 m
-28.633 81.75 -33.023 81.922 -34.141 81.75 C
-33.195 82.266 -27.428 84.16 -26.138 84.245 C
-25.621 81.578 L
b
2 J
-17.876 86.182 m
-19.166 85.665 -21.318 83.901 -21.878 83.256 C
-22.351 85.321 L
-21.619 85.45 -18.649 86.182 -17.876 86.182 C
b
0 g
0.1 G
0.172 w
-51.181 69.529 m
S
0 G
0 J
0.034 w
38.324 63.892 m
38.324 62.557 l
39.357 61.524 l
44.176 61.524 L
45.294 62.816 l
45.347 64.967 L
45.39 65.054 L
45.294 62.472 l
44.176 61.18 L
39.357 61.18 l
38.324 62.213 l
38.409 63.934 L
38.324 63.892 L
b
0.4 G
45.165 62.472 m
44.176 61.352 L
39.357 61.352 l
38.453 62.256 l
S
} def 

/porsche_7 {
0.3 g
0.3 G
38.711 63.978 m
38.668 63.032 38.558 61.879 39.529 62.171 c
41.68 62.816 44.305 61.611 43.917 63.72 C
43.875 64.494 43.444 64.409 y
B
0 g
0.8 G
0.257 w
39.529 62.171 m
41.68 62.816 44.305 61.611 43.917 63.72 C
43.875 64.494 43.444 64.409 Y
S
0.3 g
0.4 G
0.085 w
55.752 79.418 m
47.662 79.762 L
44.564 77.954 41.638 74.426 40.949 73.049 C
42.971 72.446 44.176 72.189 44.692 71.199 C
45.252 69.908 45.252 68.875 Y
52.826 69.09 59.452 74.167 60.399 75.287 C
55.752 79.418 L
b
0.2 g
0 G
0.034 w
61.241 74.017 m
63.958 76.323 65.352 78.834 63.635 80.717 C
63.204 80.975 63.291 80.802 62.947 81.147 C
34.459 99.134 L
33.768 99.094 32.924 98.947 31.996 98.705 C
41.376 90.787 54.356 80.472 61.241 74.017 C
b
1 J
0.172 w
64.22 79.942 m
64.307 79.684 64.242 79.687 64.327 79.343 C
65.44 74.301 51.233 67.068 45.294 67.67 C
45.252 68.402 45.252 68.854 V
51.38 68.56 64.35 75.595 63.295 80.375 C
63.209 80.72 63.274 80.717 63.188 80.975 C
63.755 80.795 63.954 80.553 64.22 79.942 C
b
0.98 g
0.3 G
0 J
0.085 w
45.338 64.494 m
45.338 64.278 36.818 63.762 36.172 63.892 C
36.086 63.892 L
35.957 64.925 35.742 66.947 36.086 69.442 C
35.785 71.156 38.797 71.156 43.531 72.154 C
45.424 71.638 45.294 68.84 45.338 64.494 C
b
0 g
0.65 G
0.034 w
27.833 100.518 m
25.706 100.223 22.187 98.799 19.345 96.68 C
18.313 95.991 18.193 96.036 16.214 96.122 C
17.16 96.122 L
19.14 96.036 19.259 95.991 20.292 96.68 C
23.135 98.799 26.652 100.223 28.779 100.518 C
28.52 100.604 27.833 100.518 Y
b
0.2 w
28.779 100.518 m
26.652 100.223 23.135 98.799 20.292 96.68 C
19.259 95.991 19.14 96.036 17.16 96.122 C
12.174 96.466 2.004 96.035 -0.052 95.692 C
-4.183 95.261 -0.138 97.929 3.39 99.22 c
S
} def

/porsche8 {
0.034 w
-0.567 97.26 m
-1.927 96.373 -2.752 95.401 0.206 95.714 C
-2.375 95.585 -1.944 96.206 -0.567 97.26 C
b
0.85 G
1 J
0.085 w
161.049 32.952 m
159.155 30.801 157.262 29.854 145.041 30.112 c
S
%ColorDisplay? {1 1 0 setrgbcolor}{1 G} ifelse
0 J
0.034 w
35.999 71.121 m
35.655 70.734 35.483 70.131 35.398 69.658 c
S
0.25 g
0.1 G
0.085 w
43.917 64.581 m
43.832 65.527 43.961 65.613 43.272 65.311 c
42.584 65.01 43.444 64.623 42.024 64.795 c
40.605 64.967 40.13 64.882 39.313 64.795 c
38.496 64.709 36.86 64.795 37.119 64.451 c
37.376 64.106 36.28 63.956 35.979 64.171 c
35.677 64.387 35.311 64.537 35.311 64.278 c
35.311 64.021 34.967 63.332 37.334 63.849 C
40.002 64.193 44.477 64.106 43.917 64.581 C
b
0 g
0 G
0.034 w
70.252 78.909 m
71.2 77.016 70.339 74.778 69.823 73.316 C
68.359 73.401 L
69.823 75.122 70.167 77.188 70.252 78.909 C
b
0.95 g
0.9 G
0.172 w
31.955 98.136 m
46.499 83.299 l
44.434 80.114 l
33.633 80.106 l
23.219 92.068 L
31.955 98.136 L
b
0.2 g
0.2 G
0.034 w
30.406 96.371 m
38.496 79.805 L
36.86 79.805 l
29.115 95.77 L
29.459 96.027 30.406 96.371 Y
b
0.1 g
0.1 G
-100.659 48.486 m
-103.887 48.013 -106.081 46.033 Y
-106.813 45.604 -101.305 45.948 -100.659 45.689 C
-100.659 48.486 L
b
0 g
0.5 G
-101.649 41.021 m
-105.221 41.206 -106.484 42.065 -105.409 43.319 c
S
0.95 g
0.95 G
-100.659 45.689 m
-100.659 49.562 L
-100.229 48.787 -97.303 48.573 -96.571 48.401 C
-96.098 47.497 -93.601 42.634 Y
-96.614 42.677 -100.702 43.237 -100.659 43.796 C
-100.659 45.689 L
B
0 g
0 G
0.344 w
-100.659 43.796 m
-100.702 43.237 -96.614 42.677 -93.601 42.634 C
-96.098 47.497 -96.571 48.401 V
-97.303 48.573 -100.229 48.787 -100.659 49.562 C
-101.218 49.046 -98.852 48.271 -96.83 48.142 C
-94.205 43.022 L
-97.131 43.107 -100.013 43.538 -100.444 43.882 C
-100.702 44.14 -100.789 43.882 -100.659 43.796 C
b
%ColorDisplay? {1 1 0 setrgbcolor}{1 G} ifelse
0.034 w
-99.432 48.745 m
-98.421 48.465 -97.948 48.443 -96.808 48.293 C
-94.011 42.915 l
-93.924 42.935 l
-96.7 48.207 l
S
} def

/porsche_8 {
0.55 g
0.55 G
-105.603 43.189 m
-107.079 41.916 -106.441 40.771 -105.221 40.44 C
-104.575 40.096 -102.595 39.88 -101.863 39.88 C
-101.821 40.569 -101.649 41.042 Y
-105.274 41.23 -106.517 42.114 -105.36 43.397 C
-105.409 43.34 L
-105.603 43.189 L
b
0.1 g
0.1 G
-105.91 42.894 m
-106.976 41.743 -106.345 40.745 -105.221 40.44 C
-104.575 40.096 -102.595 39.88 -101.863 39.88 C
-101.95 39.45 -101.907 38.374 -101.95 38.202 C
-110.04 39.063 -107.03 43.066 -105.91 42.894 C
b
0 g
0 G
-101.95 38.202 m
-105.994 38.632 -107.264 39.848 -107.384 40.936 C
-107.384 38.246 L
-107.298 36.954 -106.125 35.62 -101.863 35.147 C
-101.95 38.202 L
b
0.6 g
0.2 w
-34.994 18.149 m
-34.305 16.944 -34.305 16.428 -33.014 17.375 C
-29.314 17.977 -27.678 18.838 -26.56 18.838 C
-23.978 19.441 -21.224 18.924 -21.912 19.785 C
-26.732 19.526 -33.014 17.892 -34.994 18.149 C
b
0 g
0.085 w
-19.416 27.487 m
-28.625 27.014 -30.518 26.411 -36.284 25.809 C
-37.145 25.809 -37.833 25.378 -37.661 26.755 C
-37.7 27.439 L
-38.579 34.163 -42.016 41.496 -47.995 46.112 C
-48.598 46.542 -48.247 47.582 -45.838 47.41 C
-41.707 46.981 -38.177 47.755 -35.423 44.743 C
-28.797 38.202 -21.998 29.208 -19.416 27.487 C
b
0.05 g
0.034 w
-39.485 24.776 m
-39.227 24.26 -39.313 24.173 -38.022 24.26 C
-33.202 24.088 -23.391 27.272 -2.736 25.55 C
40.166 23.485 L
60.95 22.452 L
64.651 22.452 69.384 21.075 Y
68.523 19.01 L
63.791 20.387 60.089 20.387 V
39.306 21.419 L
-3.597 23.485 L
-24.252 25.206 -31.825 21.592 -36.645 21.764 C
-37.42 21.936 -37.505 21.678 -38.108 22.108 C
-38.969 22.624 -39.915 23.829 -39.485 24.776 C
b
0.2 g
0.15 G
-39.162 25.853 m
-39.27 25.702 -38.689 25.68 -38.366 25.723 C
-33.547 25.55 -23.391 28.821 -2.736 27.1 C
40.166 25.034 L
60.95 24.001 L
64.651 24.001 69.556 22.624 Y
69.384 21.075 L
64.651 22.452 60.95 22.452 V
40.166 23.485 L
-2.736 25.55 L
-23.391 27.272 -33.202 24.088 -38.022 24.26 C
-39.313 24.173 -39.227 24.26 -39.485 24.776 C
-39.528 25.186 -39.355 25.874 -39.162 25.853 C
b
0 g
0.8 G
2 J
0.085 w
-9.141 57.437 m
-8.968 57.049 -9.01 56.275 -9.141 56.06 c
S
} def

/porsche9 {
0 G
0.034 w
-9.226 56.06 m
-10.431 55.63 l
-10.668 55.931 l
-9.226 56.06 L
b
0.1 G
0.085 w
-10.818 57.566 m
-9.226 57.437 L
-9.054 57.049 -9.097 56.275 -9.226 56.06 C
-10.775 55.931 l
S
0.5 g
0.4 G
0.172 w
-18.048 54.898 m
-16.412 53.607 -11.851 54.21 -11.335 56.275 C
-11.335 57.308 L
-11.851 59.374 -16.412 59.975 -18.048 58.685 C
-18.048 54.898 L
b
0 g
%ColorDisplay? {1 1 0 setrgbcolor}{1 G} ifelse
0.25 w
-18.3 54.73 m
-16.532 53.334 -11.597 53.985 -11.039 56.219 C
-11.039 57.336 L
-11.597 59.57 -16.532 60.221 -18.3 58.825 C
-18.3 54.73 L
s
0.75 G
0.172 w
-21.231 56.748 m
S
0.15 g
0.15 G
-22.351 56.792 m
-22.566 55.63 -20.026 53.393 -17.316 55.156 C
-17.1 55.759 L
-16.499 55.974 -13.056 56.275 -10.818 55.931 C
-10.431 55.415 L
-9.054 55.888 L
-8.925 56.147 -8.838 56.275 -8.838 56.748 C
-8.838 57.221 -8.925 57.351 -9.054 57.609 C
-10.431 58.082 L
-10.818 57.566 L
-13.056 57.221 -16.499 57.524 -17.1 57.738 C
-17.316 58.341 L
-20.026 60.105 -22.566 57.868 -22.351 56.705 C
-22.351 56.792 L
b
0 g
0 G
0.034 w
-22.351 56.792 m
-22.566 55.63 -20.026 53.393 -17.316 55.156 C
-17.1 55.759 L
-16.499 55.974 -13.056 56.275 -10.818 55.931 C
-10.431 55.415 L
-9.054 55.888 L
-8.925 56.147 -8.838 56.275 -8.838 56.748 C
-8.838 57.221 -8.925 57.351 -9.054 57.609 C
-10.431 58.082 L
-10.818 57.566 L
-13.056 57.221 -16.499 57.524 -17.1 57.738 C
-17.316 58.341 L
-20.026 60.105 -22.566 57.868 -22.351 56.705 C
-22.351 56.792 L
s
1 J
0.344 w
-10.818 57.566 m
-13.056 57.221 -16.499 57.524 -17.1 57.738 C
S
} def

/porsche_9 {
-17.1 55.759 m
-16.499 55.974 -13.056 56.275 -10.818 55.931 C
S
0.034 w
-17.1 55.759 m
-18.091 55.63 -18.908 54.639 -19.984 55.07 C
-20.93 55.243 -21.834 55.888 -21.878 56.705 C
-21.878 56.792 L
-21.834 57.609 -20.93 58.254 -19.984 58.426 C
-18.908 58.857 -18.091 57.868 -17.1 57.738 c
S
u
1 g
-21.412 56.705 m
-21.412 56.201 -21.004 55.793 -20.501 55.793 c
-19.996 55.793 -19.588 56.201 -19.588 56.705 c
-19.588 57.21 -19.996 57.618 -20.501 57.618 c
-21.004 57.618 -21.412 57.21 -21.412 56.705 c
b
-20.501 56.705 m
B
U
0.4 G
0.516 w
-20.501 57.173 m
-20.501 56.222 l
B
0.8 G
0.172 w
-20.501 57.173 m
-20.501 56.222 l
B
0 g
0 G
0 J
0.034 w
58.13 54.699 m
57.226 60.763 53.96 65.309 45.478 64.387 C
45.39 64.494 l
45.39 65.01 L
54.576 65.967 57.455 60.93 58.131 54.702 C
B
0.1 G
0.344 w
45.39 65.054 m
56.922 66.086 58.471 58.169 58.299 49.907 C
58.562 37.09 58.218 24.87 V
40.231 25.763 L
-2.67 27.829 L
-3.478 27.896 -4.27 27.956 -5.045 28.009 C
-7.111 28.181 -12.101 28.047 -14.683 33.038 C
-22.547 52.267 -26.612 59.366 -21.74 66.344 c
S
0.6 G
-79.884 46.714 m
-83.154 43.357 -87.629 38.193 -85.392 27.608 c
S
0 G
1 J
0.257 w
-59.314 78.815 m
-59.755 78.592 -61.238 77.966 -63.055 77.215 c
S
0.344 w
-64.064 76.799 m
-67.812 75.259 -72.354 73.437 y
S
}def

/porsche10 {
0.257 w
-61.639 78.601 m
-62.067 78.409 -63.554 77.87 -65.42 77.21 c
S
0.344 w
-66.634 76.782 m
-70.821 75.312 -76.054 73.522 y
S
0.257 w
-63.962 78.47 m
-64.4 78.296 -66.031 77.773 -68.091 77.132 c
S
0.344 w
-69.644 76.65 m
-74.191 75.243 -79.755 73.566 y
S
0.257 w
-66.716 78.256 m
-67.164 78.092 -68.924 77.584 -71.148 76.961 c
S
0.344 w
-73.023 76.438 m
-77.8 75.111 -83.498 73.566 y
S
0.257 w
-69.47 78.041 m
-69.944 77.883 -71.933 77.373 -74.414 76.753 c
S
0.344 w
-76.677 76.191 m
-81.553 74.985 -87.07 73.651 y
S
0.7 G
0.085 w
-59.363 79.023 m
-59.803 78.799 -61.287 78.172 -63.102 77.422 c
S
0.172 w
-64.214 77.058 m
-67.963 75.518 -72.504 73.694 y
S
0.085 w
-61.686 78.807 m
-62.114 78.617 -63.602 78.076 -65.467 77.417 c
S
0.172 w
-66.784 77.04 m
-70.972 75.571 -76.204 73.781 y
S
0.085 w
-64.01 78.678 m
-64.447 78.504 -66.079 77.981 -68.139 77.338 c
S
0.172 w
-69.795 76.907 m
-74.341 75.502 -79.905 73.823 y
S
0.085 w
-66.764 78.463 m
-67.212 78.3 -68.972 77.792 -71.195 77.169 c
S
0.172 w
-73.173 76.697 m
-77.951 75.368 -83.649 73.823 y
S
0.085 w
-69.518 78.249 m
-69.991 78.091 -71.98 77.581 -74.461 76.96 c
S
0.172 w
-76.829 76.448 m
-81.703 75.243 -87.22 73.91 y
S
0.15 g
0 G
0 J
0.034 w
-42.661 85.227 m
-48.836 83.699 -60.282 78.126 -61.122 77.093 C
-61.445 76.535 -61.918 75.91 -60.562 76.793 C
-58.442 78.314 -44.574 84.722 -42.661 85.227 C
b
0 g
-42.64 85.248 m
-39.971 86.324 -36.465 87.421 -35.217 87.68 C
-33.452 88.196 -34.744 88.325 -34.271 88.067 c
S
}def

/porsche_10 {
0.65 g
0.6 G
0.344 w
-71.656 69.572 m
-83.155 63.524 -94.84 55.839 -96.27 54.123 c
B
0 g
0 G
1 J
-75.688 67.713 m
-79.647 65.476 -85.779 61.602 -86.984 60.828 C
S
0.15 g
0 J
0.034 w
-49.288 82.482 m
-63.532 82.128 -69.04 81.311 -72.482 80.708 C
-84.961 78.47 -96.236 75.631 -100.108 74.512 C
-101.227 74.082 -101.657 74.082 -101.744 72.962 C
-102.088 70.467 -101.744 68.659 -99.247 68.058 C
-88.834 65.045 -80.313 66.809 -77.387 67.197 C
-74.332 67.412 -72.999 70.295 -74.72 70.553 C
-77.387 71.069 -80.917 71.069 -82.551 70.984 C
-84.1 73.479 -87.371 73.91 -91.674 73.823 C
-81.002 76.32 -75.494 77.266 -67.835 78.729 C
-66.286 79.331 -57.421 79.503 -55.183 79.59 C
-52.902 80.751 -50.536 82.232 -49.288 82.482 C
b
0.05 g
-100.108 74.512 m
-96.353 75.597 -85.637 78.301 -73.611 80.504 C
-73.084 80.106 -72.87 80.106 -72.655 80.106 C
-87.414 77.697 -95.763 75.158 -98.258 74.211 C
-98.796 73.975 -99.936 73.953 -100.108 74.512 C
b
0 g
-101.56 69.8 m
-101.206 68.962 -100.495 68.358 -99.247 68.058 C
-88.834 65.045 -80.313 66.809 -77.387 67.197 C
-75.479 67.331 -74.241 68.508 -74.002 69.435 C
-78.163 68.831 -80.313 68.574 Y
-81.002 68.487 -80.895 68.295 -81.346 67.778 C
-82.681 65.369 -99.549 67.197 -101.56 69.8 C
b
-77.862 66.336 m
-75.108 67.627 -72.783 69.306 -71.622 69.822 C
-71.149 70.467 -70.288 71.413 -69.083 72.489 c
S
0.3 g
0.3 G
-92.877 39.535 m
-90.48 39.262 -87.935 38.803 -85.392 37.979 C
-86.209 34.881 -86.124 30.75 -85.693 29.286 C
-88.102 30.879 -92.277 31.696 -93.266 31.825 C
-93.181 37.548 -93.093 39.412 -92.877 39.535 C
b
0 g
0.15 G
0.172 w
-93.369 31.144 m
-89.91 30.62 -87.28 30.027 -85.779 29.33 C
S
0 G
1 J
0.516 w
-99.205 31.962 m
S
-98.086 31.79 m
S
-95.935 31.361 m
S
0.3 G
1.032 w
-100.367 32.307 m
S
0.5 G
0.172 w
-99.205 31.962 m
S
-98.086 31.79 m
S
-95.935 31.361 m
S
%ColorDisplay? {1 1 0 setrgbcolor}{1 G} ifelse
0 J
0.034 w
69.384 21.075 m
64.651 22.452 60.95 22.452 V
40.166 23.485 L
-2.736 25.55 L
-23.391 27.272 -33.202 24.088 -38.022 24.26 C
-39.313 24.173 -39.227 24.26 -39.485 24.776 C
S
0.9 G
-100.108 74.512 m
-100.238 73.694 -93.911 73.995 -91.157 73.823 c
S
} def

/porsche11 {
0.3 g
0.25 G
-73.278 80.257 m
-72.87 80.085 -72.655 80.02 -71.751 80.106 C
-69.319 80.407 -67.19 80.708 -65.898 80.73 C
-67.038 80.773 -69.6 80.666 -69.964 80.666 C
-70.158 80.666 -66.543 81.139 -63.918 81.268 C
-66.953 81.246 -72.504 80.386 -73.278 80.257 C
b
0.05 g
0.05 G
-69.814 80.708 m
-65.339 81.355 -52.989 81.913 -52 82 C
-53.333 81.527 -54.451 80.924 -55.14 80.623 C
-59.787 80.924 -66.156 80.88 -69.814 80.708 C
b
0 g
0 G
-82.551 70.984 m
-81.777 69.822 -81.261 68.531 -80.701 68.831 c
S
0.45 g
0.55 G
0.085 w
-83.714 67.11 m
-84.359 67.025 -84.66 67.52 -83.455 67.713 C
-83.111 67.799 -81.583 67.864 -82.723 69.864 C
-83.412 70.877 -83.671 73.265 -91.459 73.609 C
-89.05 73.651 -84.402 73.522 -82.895 71.027 C
-82.207 70.058 -81.821 69.197 -81.562 68.831 C
-81.476 68.617 -80.938 67.563 -83.714 67.11 C
b
0 g
0.9 G
-70.073 72.79 m
-84.359 72.79 l
S
} def

/porsche_11 {
%ColorDisplay? {1 1 0 setrgbcolor}{1 G} ifelse
0.344 w
-101.649 41.042 m
-105.274 41.23 -106.517 42.114 -105.36 43.397 C
S
-92.877 39.535 m
-90.48 39.262 -87.935 38.803 -85.392 37.979 C
S
0 G
0.172 w
-93.688 42.634 m
-90.547 42.118 -87.879 41.516 -84.651 40.268 C
-85.225 39.193 -85.125 38.804 Y
-83.834 38.804 -83.404 38.481 -82.371 38.095 C
-82.306 38.181 -82.263 38.374 Y
-83.296 38.762 -83.662 39.106 -84.953 39.106 C
-84.823 39.686 -84.393 40.504 V
-87.62 41.752 -90.503 42.419 -93.645 42.935 C
-93.817 42.957 l
-93.688 42.634 L
b
0.3 g
0.3 G
0.034 w
-85.779 29.33 m
-86.854 30.018 -89.307 31.18 -93.31 31.825 C
-93.369 31.144 L
-89.91 30.62 -87.28 30.027 -85.779 29.33 C
B
0 g
0 G
1 J
-91.416 42.239 m
-93.395 42.712 -98.818 42.884 -99.721 43.315 C
-101.829 42.282 -102.217 40.259 -101.829 35.655 C
-101.872 33.934 -102.408 32.419 -98.344 31.933 C
-93.338 31.352 L
-92.907 39.614 -93.697 39.442 -91.416 42.239 C
b
1.377 w
-100.194 40.827 m
-100.367 32.307 l
S
0.516 w
-96.774 40.733 m
-97.053 31.575 l
S
0.6 G
0.172 w
-96.774 40.733 m
-97.053 31.575 l
S
0.4 G
1.032 w
-100.194 40.913 m
-100.367 32.307 l
S
0 G
1.377 w
-99.075 42.634 m
-100.194 40.913 l
S
0.8 G
1.032 w
-99.075 42.634 m
-100.194 40.913 l
S
0 G
0.516 w
-98.968 40.862 m
-99.205 31.962 l
S
0.6 G
0.172 w
-98.968 40.862 m
-99.205 31.962 l
S
0.8 G
-98 42.462 m
-98.946 40.913 l
S
0 G
0.516 w
-97.892 40.819 m
-98.086 31.79 l
S
0.6 G
0.172 w
-97.892 40.819 m
-98.086 31.79 l
S
0.8 G
-96.795 42.462 m
-97.828 40.827 l
S
-95.848 42.333 m
-96.709 40.784 l
S
0 G
0.516 w
-95.59 40.655 m
-95.935 31.361 l
S
0.6 G
0.172 w
-95.59 40.655 m
-95.935 31.361 l
S
0.8 G
-94.558 42.377 m
-95.59 40.655 l
S
0 G
1.377 w
-94.148 40.539 m
-94.558 31.317 l
S
0.4 G
1.032 w
-94.148 40.539 m
-94.558 31.317 l
S
}def

/porsche12 {
0 G
1.377 w
-93.094 42.161 m
-94.148 40.625 l
S
0.8 G
1.032 w
-93.094 42.161 m
-94.148 40.625 l
S
0.3 G
0.344 w
44.133 79.503 m
33.934 79.304 l
S
0.1 G
1.721 w
41.379 79.59 m
39.529 77.396 38.065 74.426 y
S
0.6 G
1.377 w
41.379 79.59 m
39.529 77.396 38.065 74.426 y
S
0.2 g
0 G
0.172 w
39.141 73.265 m
26.146 89.53 L
24.769 91.338 24.416 92.276 25.362 93.394 C
28.151 95.624 33.194 97.654 36.206 97.998 C
36.336 98.666 34.746 99.188 34.357 99.067 C
31.374 98.808 25.896 96.764 22.875 93.575 C
22.101 92.715 22.273 91.338 23.65 89.53 C
36.947 72.92 L
37.98 73.049 39.141 73.265 Y
b
u
0.85 g
0.2 G
0 J
1 j
0.344 w
63.97 52.867 m
68.145 52.867 L
68.145 55.578 L
63.97 55.578 L
63.97 52.867 L
b
66.058 54.223 m
B
U
0.95 g
0 G
0.034 w
63.97 53.211 m
68.145 53.211 L
68.145 55.449 L
63.97 55.449 L
63.97 53.211 L
b
0.85 g
0.2 G
66.058 54.223 m
B
u
0.4 g
0.3 G
64.449 54.288 m
64.449 54.052 64.638 53.862 64.874 53.862 c
65.109 53.862 65.3 54.052 65.3 54.288 c
65.3 54.523 65.109 54.713 64.874 54.713 c
64.638 54.713 64.449 54.523 64.449 54.288 c
b
64.874 54.288 m
B
U
0 g
0.6 G
2 J
0 j
1.032 w
-24.581 86.017 m
-24.604 85.665 -20.477 66.552 Y
S
}def

/porsche_12 {
0.3 g
0.18 G
0.034 w
-25.32 80.545 m
-36.508 80.889 L
-41.156 79.383 -47.869 75.553 -49.632 74.521 C
-53.935 71.939 -53.505 71.078 -53.074 70.562 C
-25.19 79.77 L
-25.32 80.545 L
b
0 g
0 G
0 J
0.344 w
-26.257 84.904 m
-31.918 83.424 -37.312 81.36 -42.589 79.02 C
-51.687 74.347 -55.978 71.566 -52.553 69.973 C
-52.165 69.822 -52.079 69.8 V
-55.505 71.394 -51.386 73.831 -42.288 78.504 C
-37.011 80.843 -31.833 82.822 -26.172 84.301 C
-26.257 84.904 L
b
0.034 w
-22.644 67.931 m
-23.333 67.939 -23.559 67.949 -24.244 67.959 C
-59.801 68.074 -59.593 70.202 -42.589 78.933 C
-37.312 81.273 -31.918 83.338 -26.257 84.817 C
-26.282 84.449 -22.644 67.931 Y
s
-55.593 70.71 m
-55.052 68.486 -45.372 66.508 -21.447 66.336 C
-25.837 86.647 l
S
0.344 w
33.508 70.785 m
20.447 86.381 L
18.795 88.171 18.949 88.359 16.746 88.635 C
16.395 88.648 16.013 88.646 15.754 88.641 C
15.582 89.147 L
15.986 89.155 16.458 89.172 17.005 89.151 C
19.208 88.876 19.052 88.687 20.705 86.897 C
33.702 71.388 L
33.573 71.216 33.573 71 33.508 70.785 C
b
0.5 G
0.429 w
21.713 68.065 m
33.245 68.237 l
S
0 G
0.344 w
21.8 67.377 m
33.332 67.549 l
S
0.034 w
35.303 63.934 m
35.282 64.882 34.874 66.516 35.475 70.131 C
35.734 70.949 36.035 71.294 36.595 71.594 C
37.98 72.038 39.794 72.352 42.067 72.705 C
40.303 73.221 39.292 73.415 37.369 72.971 C
35.046 72.368 33.669 72.024 33.497 70.734 C
33.238 66.603 32.98 64.537 34.271 64.193 C
34.357 63.849 34.787 64.021 35.303 63.934 C
b
0.6 G
0.085 w
47.662 79.762 m
44.564 77.954 41.638 74.426 40.949 73.049 C
S
0.3 G
143.656 58.341 m
150.497 54.488 160.786 45.893 161.659 40.368 C
S
%ColorDisplay? {1 1 0 setrgbcolor}{1 G} ifelse
0.034 w
142.881 59.803 m
143.009 59.571 143.204 59.15 143.437 58.616 C
144.154 56.983 145.235 54.293 145.851 52.704 C
S
0.35 G
0.429 w
135.824 62.644 m
138.75 58.685 143.656 50.595 146.238 43.968 c
S
0 G
0.257 w
142.254 52.35 m
143.772 49.562 145.194 46.647 146.238 43.968 c
S
}def

/porsche13 {
0.1 g
0.2 w
141.591 39.493 m
142.171 38.116 L
161.88 37.255 156.651 48.099 143.829 56.705 C
144.173 54.639 L
150.067 47.97 152.564 44.442 148.777 41.085 C
147.4 40.139 147.184 39.45 141.591 39.493 C
b
0 g
0.257 w
155.018 41.957 m
156.352 45.729 151.421 51.609 143.829 56.705 C
S
1 g
0.95 G
0.034 w
139.181 61.18 m
142.537 56.533 147.701 47.153 147.529 46.378 C
146.927 51.369 143.14 59.287 142.709 60.147 C
142.279 61.008 140.127 61.095 139.181 61.18 C
b
0 g
0.6 G
143.56 58.336 m
143.134 59.277 142.818 59.933 142.709 60.147 C
142.279 61.008 140.127 61.095 139.181 61.18 C
S
0.3 G
139.181 61.18 m
141.698 57.696 145.232 51.548 146.769 48.364 C
S
%ColorDisplay? {1 1 0 setrgbcolor}{1 G} ifelse
139.698 60.836 m
142.214 57.351 145.662 51.203 147.2 48.02 C
S
0.3 G
1 J
0.516 w
146.333 43.968 m
146.934 42.505 L
147.107 42.074 147.365 42.419 147.623 42.333 c
S
0.45 G
0 J
0.034 w
145.764 52.918 m
146.367 51.499 147.443 47.712 147.529 46.508 C
147.701 45.819 147.744 44.915 146.238 44.011 c
S
145.764 52.918 m
146.367 51.499 147.443 47.712 147.529 46.508 C
147.701 45.819 147.744 44.915 146.238 44.011 c
S
145.764 52.918 m
146.367 51.499 147.443 47.712 147.529 46.508 C
147.701 45.819 147.744 44.915 146.238 44.011 c
S
0.25 G
147.529 46.508 m
147.701 45.819 147.744 44.915 146.238 44.011 c
S
0 G
0.068 w
149.645 21.85 m
148.049 21.005 142.115 19.776 137.812 19.863 C
S
} def

/porsche_13 {
0.1 g
0.1 G
1 j
0.429 w
46.298 71.283 m
48.353 72.999 51.872 74.727 55.707 74.884 C
55.665 74.383 L
52.007 74.082 48.78 72.426 46.479 71.091 C
46.298 71.283 L
b
0 g
0 G
1 J
0.172 w
63.949 74.405 m
63.712 74.792 L
63.949 74.792 l
63.949 74.405 l
b
0.8 g
0.3 G
0 J
0.429 w
64.681 75.116 m
64.271 75.803 l
57.558 74.986 l
57.558 74.339 l
63.949 74.703 l
63.949 74.379 L
64.53 74.383 l
64.681 75.116 L
b
0.1 g
0.1 G
63.927 74.38 m
64.508 74.384 L
64.681 75.116 l
57.537 74.556 l
57.537 74.341 l
63.949 74.703 L
63.927 74.38 L
b
0 g
0 G
1 J
58.334 74.77 m
56.827 74.727 53.728 74.727 51.104 73.651 c
S
0.6 G
0 j
0.085 w
34.278 64.271 m
33.999 66.918 34.431 70.261 34.559 70.768 C
34.795 71.328 34.903 71.651 36.452 72.167 c
S
0 G
0 J
0.429 w
-4.363 88.204 m
-6.773 86.999 -7.376 88.419 -7.032 79.813 C
-8.581 83.772 -9.958 85.149 -10.646 85.149 C
-13.572 84.805 -15.81 84.116 -17.187 83.256 C
-18.564 81.534 -18.048 80.773 -18.22 80.157 C
-18.822 76.019 -18.649 71.716 y
S
-17.23 83.299 m
-15.853 83.377 -12.067 73.049 -10.431 68.143 c
S
-7.075 79.856 m
-5.095 75.372 -3.202 70.381 y
S
-6.387 87.249 m
-4.493 88.626 1.274 74.082 2.651 71.93 c
S
12.462 72.618 m
17.798 72.618 l
S
0.05 G
20.293 72.618 m
31.654 72.618 l
S
0 G
3.511 88.454 m
8.675 80.02 12.117 73.135 13.15 71.413 c
S
0.5 G
-18.794 68.162 m
-1.813 68.019 13.692 68.04 19.264 67.945 C
S
0 G
0.172 w
-18.621 67.474 m
-1.641 67.331 13.864 67.351 19.436 67.257 C
S
0.5 G
-22.907 68.547 m
-24.938 68.583 -28.288 68.601 -32.549 68.619 C
-38.659 68.746 -50.278 68.487 -52.86 70.381 c
S
0 G
1 j
0.429 w
-4.318 88.268 m
-9.421 87.784 -15.076 86.883 -22.339 85.31 C
-18.707 68.096 L
-18.966 68.096 L
-22.684 85.826 L
-6.703 89.288 1.642 89.498 13.303 89.15 C
13.497 88.633 L
7.136 88.823 1.805 88.848 -4.318 88.268 C
B
0.6 g
19.519 67.335 m
13.366 89.064 L
13.451 89.237 15.345 89.581 15.603 89.108 C
21.782 67.347 l
19.519 67.335 L
b
0 g
%ColorDisplay? {1 1 0 setrgbcolor}{1 G} ifelse
1 J
0 j
0.085 w
-51.246 48.893 m
-56.373 52.056 -61.651 52.76 -65.726 52.661 C
-74.419 51.628 -77.086 48.959 -79.84 46.636 C
S
} def

/porsche14 {
0.1 g
0 G
0 J
0.516 w
100.437 -0.497 m
112.905 -0.28 123.083 9.793 122.344 23.303 c
121.571 37.441 108.957 47.577 96.015 46.872 c
83.071 46.166 73.811 35.889 74.947 22.397 c
76.082 8.905 87.738 -0.718 100.437 -0.497 c
b
0.3 G
115.591 5.521 m
120.056 9.864 122.736 16.136 122.344 23.303 c
121.571 37.441 108.957 47.577 96.015 46.872 c
83.071 46.166 73.811 35.889 74.947 22.397 c
76.082 8.905 87.738 -0.718 100.437 -0.497 c
106.291 -0.395 111.64 1.679 115.591 5.521 c
B
0 g
0 G
0.011 w
100.178 5.091 m
109.483 5.252 117.08 12.962 116.528 23.045 c
115.951 33.599 106.536 41.164 96.877 40.637 c
87.216 40.111 80.304 32.441 81.152 22.371 c
81.999 12.301 90.699 4.925 100.178 5.091 c
b
0.9 g
100.17 5.834 m
109.203 5.991 116.579 13.477 116.044 23.267 c
115.484 33.513 106.344 40.857 96.965 40.345 c
87.586 39.834 80.876 32.388 81.698 22.612 c
82.52 12.835 90.967 5.674 100.17 5.834 c
b
0 g
0.9 G
115.757 21.841 m
115.77 22.321 115.763 22.808 115.735 23.301 c
115.187 33.342 106.149 40.603 96.958 40.102 c
94.28 39.955 91.903 39.17 89.788 37.98 c
S
0 G
100.282 8.074 m
108.413 8.217 115.405 14.7 114.592 23.494 c
113.75 32.606 105.293 39.705 95.899 38.665 c
88.717 37.869 82.941 31.705 83.681 22.905 c
84.421 14.106 92 7.93 100.282 8.074 c
s
} def

/porsche_14 {
1 g
0.85 G
114.584 18.757 m
113.039 12.285 107.059 7.883 100.309 7.764 c
91.861 7.618 84.131 13.916 83.376 22.892 C
83.097 21.727 82.874 21.942 82.93 20.391 C
84.671 12.232 92.11 6.482 100.156 6.622 c
106.741 6.737 112.4 10.949 114.445 17.106 C
114.886 18.144 114.584 18.757 Y
b
0.2 g
0.1 G
104.226 37.442 m
102.086 38.177 99.04 38.613 96.65 38.348 c
89.827 37.591 84.34 31.734 85.042 23.375 c
85.746 15.015 92.946 9.149 100.814 9.287 c
107.408 9.401 113.49 13.999 114.566 20.515 C
114.575 20.583 L
113.796 13.304 107.486 8.2 100.282 8.074 c
92 7.93 84.421 14.106 83.681 22.905 c
82.941 31.705 88.717 37.869 95.899 38.665 c
98.835 38.99 101.678 38.521 104.227 37.444 C
104.226 37.442 L
b
0.15 g
85.042 23.375 m
84.34 31.734 89.827 37.591 96.65 38.348 c
99.04 38.613 102.086 38.177 104.226 37.442 C
104.227 37.444 L
101.678 38.521 98.835 38.99 95.899 38.665 c
88.717 37.869 82.941 31.705 83.681 22.905 C
85.042 23.375 L
b
0 g
0 G
0.126 w
98.147 38.117 m
97.389 38.08 96.627 37.954 95.868 37.725 c
90.321 36.063 85.101 30.154 87.172 22.719 c
89.061 15.932 96.865 11.3 103.364 12.609 c
108.711 13.687 113.245 17.285 113.355 23.526 C
113.347 23.601 113.34 23.676 113.332 23.75 C
113.591 26.973 112.313 30.482 111.108 32.003 C
109.302 34.241 105.376 38.833 98.147 38.117 C
b
0.2 G
0.123 w
113.276 24.122 m
113.283 24.05 113.291 23.977 113.298 23.904 C
113.526 18.019 108.613 14.351 103.421 13.305 c
97.111 12.034 89.535 16.531 87.699 23.12 c
85.689 30.341 90.758 36.077 96.144 37.69 c
96.881 37.912 97.62 38.034 98.355 38.071 C
S
0.4 g
0.4 G
0.154 w
96.865 22.48 m
92.226 18.231 L
91.981 18.008 91.92 17.759 92.097 17.524 C
92.892 16.398 95.045 15.287 95.731 15.037 C
96.057 14.976 96.322 15.083 96.437 15.465 C
98.583 21.472 l
B
0.25 g
0.1 G
96.865 22.48 m
92.621 18.811 L
92.376 18.588 92.315 18.338 92.492 18.104 C
93.286 16.979 95.439 15.867 96.126 15.616 C
96.452 15.556 96.716 15.662 96.832 16.045 C
98.583 21.472 l
B
96.169 23.758 m
89.368 22.675 L
88.939 22.587 88.726 22.751 88.653 23.044 C
88.308 24.317 88.101 25.118 88.241 27.422 C
88.413 27.868 88.719 27.736 89.041 27.644 C
96.218 25.594 L
96.169 23.758 L
b
0.1 g
0.011 w
100.468 21.017 m
102.406 21.407 103.721 23.309 103.248 25.394 c
102.753 27.576 100.519 28.797 98.52 28.316 c
96.52 27.836 95.348 25.97 95.882 23.898 c
96.415 21.826 98.494 20.619 100.468 21.017 c
b
0 g
0 G
100.581 20.839 m
102.617 21.249 103.995 23.247 103.5 25.436 c
102.98 27.727 100.636 29.008 98.536 28.503 c
96.436 28 95.205 26.039 95.765 23.865 c
96.326 21.69 98.508 20.421 100.581 20.839 c
n
0.2 g
0.8 G
100.114 21.439 m
101.798 21.778 102.942 23.431 102.531 25.244 c
102.1 27.143 100.157 28.204 98.42 27.787 c
96.68 27.369 95.662 25.745 96.126 23.944 c
96.59 22.144 98.398 21.093 100.114 21.439 c
b
0 g
0.2 G
0.247 w
101.726 37.644 m
S
} def

/porsche15 {
0.25 g
0.1 G
0.154 w
103.279 22.362 m
109.214 18.97 L
109.587 18.779 109.619 18.525 109.453 18.256 C
109.089 17.717 107.226 15.98 105.774 15.562 C
105.469 15.465 105.222 15.579 105.06 15.843 C
101.845 21.022 L
102.455 21.333 103.106 22.051 103.279 22.362 C
b
103.018 27.487 m
108.998 32.004 L
109.318 32.282 109.6 32.249 109.836 32.04 C
110.364 31.382 111.326 30.478 111.793 28.35 C
111.802 28.063 111.583 27.803 111.25 27.726 C
103.893 25.84 L
103.88 26.044 103.47 27.093 103.018 27.487 C
b
99.293 28.964 m
99.675 35.741 L
99.696 36.049 99.559 36.264 99.248 36.327 C
97.369 36.518 95.292 35.805 94.578 35.572 C
94.431 35.495 94.04 35.39 94.355 34.839 C
97.369 28.428 L
97.788 28.719 98.757 28.965 99.293 28.964 C
b
0 g
0.2 G
105.242 15.622 m
105.595 15.153 106.238 14.677 107.003 14.948 c
S
0.4 G
111.21 18.626 m
110.714 18.191 109.772 18.56 109.3 18.926 C
103.291 22.36 l
S
87.84 28.386 m
87.713 27.974 88.069 27.8 88.709 27.728 C
95.615 25.748 l
S
0.5 G
95.131 26.568 m
88.185 28.33 L
S
0.2 G
94.276 35.086 m
93.998 35.712 93.92 36.318 94.346 36.628 c
S
0.7 G
99.561 36.705 m
99.573 37.031 99.692 37.296 100.011 37.449 c
S
0.2 G
100.236 36.552 m
99.85 29.225 l
S
0.1 G
0.091 w
98.737 20.573 m
96.986 14.541 L
96.91 14.384 97.014 14.264 97.27 14.193 c
97.94 14.008 100.208 13.201 103.032 13.706 c
S
96.363 22.394 m
91.396 18.359 L
91.048 18.052 90.875 18.339 90.773 18.436 C
90.203 19.062 89.803 19.71 89.609 20.011 c
S
0.5 G
0.154 w
110.578 19.206 m
103.675 22.833 L
S
0.4 G
103.02 27.492 m
109.048 32.036 L
109.578 32.388 109.589 32.425 109.826 32.412 c
S
} def

/porsche_15 {
0 G
0.011 w
100.37 8.635 m
108.338 8.774 115.19 15.129 114.394 23.746 c
113.568 32.678 105.28 39.634 96.075 38.614 c
89.037 37.835 83.376 31.793 84.1 23.169 c
84.827 14.546 92.254 8.495 100.37 8.635 c
s
0.1 g
0.1 G
1 j
0.348 w
50.596 75.481 m
52.261 76.87 55.11 78.269 58.216 78.398 C
58.183 77.991 L
55.22 77.748 52.606 76.405 50.741 75.325 C
50.596 75.481 L
b
0 g
0 G
1 J
0.139 w
64.892 78.009 m
64.701 78.323 L
64.892 78.323 l
64.892 78.009 l
b
0.8 g
0.3 G
0 J
0.348 w
65.485 78.585 m
65.154 79.141 l
59.716 78.479 l
59.716 77.957 l
64.892 78.25 l
64.892 77.989 L
65.363 77.991 l
65.485 78.585 L
b
0.1 g
0.1 G
64.874 77.989 m
65.346 77.992 L
65.485 78.585 l
59.699 78.131 l
59.699 77.958 l
64.892 78.25 L
64.874 77.989 L
b
0 g
0 G
1 J
60.343 78.305 m
59.123 78.27 56.614 78.27 54.488 77.398 c
S
0.45 G
0 J
0 j
0.2 w
133.423 27.53 m
134.456 20.903 135.058 21.162 136.349 20.215 C
S
} def

%90 rotate
%100 -650 translate
%250 200 translate
%2.6 dup scale

/porsche {
porsche1
porsche_1
porsche2
porsche_2
porsche3
porsche_3
porsche4
porsche_4
porsche5
porsche_5
porsche6
porsche_6
porsche7
porsche_7
porsche8
porsche_8
porsche9
porsche_9
porsche10
porsche_10
porsche11
porsche_11
porsche12
porsche_12
porsche13
porsche_13
porsche14
porsche_14
porsche15
porsche_15
} def

90 rotate
100 -650 translate
250 200 translate
2.6 dup scale

%.5 dup scale

%200 1400 translate
%porsche
%600 0 translate
porsche

showpage
%0 G
%1 w
%/Times-Roman 36 8 0 0 z
%[1 0 0 1 -60 150]e
%(Nord-Mobile)t
T
%%Pages: 1
