%!PS
%% Author: Alena Lacova,  alena@nikhef.nl
%% Date: 14-FEB-1992
%% Description: This program draws random butterfly at random position
%%
%%---------- Beginning of Definitions ----------
%%
%++++++++++++++++
%----KRIDLO----
%++++++++++++++++

/Red 0 def /Green 0 def /Blue 0 def
/wedge { %def
  newpath
  	0 0 moveto
	X1 Y1 X2 Y2 X3 Y3 curveto
	closepath
	0 0 moveto
	X1 neg Y1 X2 neg Y2 X3 neg Y3 curveto
	closepath
} def

/FlowerProp { %def
	/X1 rand 80 mod def 
	/Y1 rand 80 mod def
	/X2 rand 80 mod def
	/Y2 rand 80 mod def
	/X3 rand 80 mod def
	/Y3 rand 80 mod def
	/x { rand 500 mod 50 add } def
	/y { rand 650 mod 50 add } def
 	x y  translate 
	0.02 setlinewidth
	Red Green Blue setrgbcolor 
} def

%+++++++++++++++++++++++++
%----NAKRESLI MOTYLIKA----
%+++++++++++++++++++++++++
/DrawFlower { %def
  gsave
	FlowerProp
	2 {
  		gsave wedge gsave eofill grestore
    		%0 setgray stroke 
		grestore 180 rotate 
	} repeat
	.5 .1 .1  setrgbcolor
	0 10 moveto 10 20 rlineto 
	0 10 moveto 10 neg 20 rlineto 
	stroke
	10 30  2 0 360 arc fill 
	-10 30  2 0 360 arc fill 
	0 -10 moveto 0 4 lineto
	0 8 moveto 0 10 lineto
	1 setlinecap
	6 setlinewidth stroke
  grestore
} def

%%
%%---------- End of Definitions ----------
%%---------- Beginning of Program --------
%%
%/seed usertime def
/seed 670964636 def
seed  srand
seed  == flush
gsave
0 0.3 1.0 { %for
	/Blue exch def  
	0 .3 1.0 { %for
		/Green exch def 
		.1 .3 1.0 { %for
			/Red exch def DrawFlower 
		} for 
	} for 
} for
grestore
showpage
%%---------- End of Program --------------
