%!PS
%% Author: Alena Lacova,  alena@nikhef.nl
%% Date: 14-FEB-1992
%% Description: This program draws random flowers at random position
%%
%%---------- Beginning of Definitions ----------
%%
/Red 0 def /Green 0 def /Blue 0 def
/wedge { %def
  newpath
  	0 0 moveto X1 Y1 X2 Y2 X3 Y3 curveto
	0 0 moveto X1 Y1 neg X2 Y2 neg X3 Y3 neg curveto
} def
/FlowerProp { %def
	/radius rand 8 mod 6 add def
	/X1 rand 80 mod def /Y1 rand 80 mod def
	/X2 rand 80 mod def /Y2 rand 80 mod def
	/X3 rand 80 mod def /Y3 rand 80 mod def
	/x { rand 500 mod 50 add } def
	/y { rand 650 mod 50 add } def
 	x y  translate 
	0.02 setlinewidth
	Red Green Blue setrgbcolor 
} def
/DrawFlower { %def
  gsave
	FlowerProp
	8 { gsave wedge gsave eofill grestore
    		%0 setgray stroke 
		grestore 45 rotate 
	} repeat
	1 1 0 setrgbcolor
	0 0 radius 0 360 arc fill 0 setgray stroke
  grestore
} def
%%
%%---------- End of Definitions ----------
%%---------- Beginning of Program --------
%%
usertime srand
gsave
0 0.4 1.0 { %for
	/Blue exch def  
	0 .4 1.1 { %for
		/Green exch def 
		0.2 .4 1.1 { %for
			/Red exch def DrawFlower 
		} for 
	} for 
} for
grestore
showpage
%%---------- End of Program --------------
