%!PSAdobe-1.0
%%Creator: AWPaeth@watCGL
%%Title: StarChart
%%Pages: 1
%%DocumentFonts Times-Bold
%%BoundingBox 0 0 612 792
%%EndComments
%%EndProlog
%%Page: 0 1
%
% alias moveto/drawto
%
/mt {moveto} def
/lt {lineto} def
%
% show: right, center, left adjust
%
/lshow {5 0 8#040 4 3 roll widthshow} def
/cshow {dup stringwidth pop 2 div neg 0 rmoveto show} def
/rshow {dup stringwidth pop neg 0 rmoveto show} def
%
% star/planet macros
%
/movereldraw {newpath 4 2 roll mt rlineto stroke} def
/starplus {3 copy 0 movereldraw 3 copy 0 exch movereldraw
neg 3 copy 0 movereldraw 3 copy 0 exch movereldraw} def
/starbody {newpath 0 360 arc closepath fill} def
/starbodyplus {3 copy starbody 1 add starplus} def
/planet {2 copy newpath 2.5 0 360 arc closepath stroke 3.5 starplus} def
%
/s0 {4.5 starbodyplus} def
/s1 {3.8 starbody} def
/s2 {3.1 starbodyplus} def
/s3 {2.4 starbody} def
/s4 {1.7 starbodyplus} def
/s5 {1.0 starbody} def
%
% alter line drawing defaults
%
0.5 setlinewidth 2 setlinecap
%
% boiler-plate
%
/Times-Bold findfont 10 scalefont setfont
 76 685 mt (Database: Yale Star Catalog) show
548 685 mt (Software: AWPaeth@watCGL) rshow
/Times-Bold findfont 18 scalefont setfont
314 685 mt (StarChart) cshow
/Times-Bold findfont 10 scalefont setfont
%
% THE STUFF
%
newpath 467.9 246.5 mt 123.7 246.5 lt stroke
newpath 512.0 678.5 mt 80.0 678.5 lt stroke
newpath 467.9 246.5 mt 470.6 263.6 lt 472.8 280.7 lt
475.1 298.3 lt 477.3 315.4 lt 479.6 332.9 lt 481.8 350.0 lt
484.1 367.1 lt 485.9 384.6 lt 488.1 401.8 lt 489.9 419.3 lt
491.8 436.4 lt 493.5 453.5 lt 495.3 471.0 lt 497.1 488.1 lt
498.9 505.7 lt 500.3 522.8 lt 502.1 539.9 lt 503.4 557.5 lt
504.8 574.5 lt 506.1 592.1 lt 507.5 609.2 lt 508.4 626.3 lt
509.8 643.8 lt 510.6 661.0 lt 512.0 678.5 lt stroke
newpath 123.7 246.5 mt 121.0 263.6 lt 118.7 280.7 lt
116.5 298.3 lt 114.2 315.4 lt 111.9 332.9 lt 109.7 350.0 lt
107.4 367.1 lt 105.7 384.6 lt 103.4 401.8 lt 101.6 419.3 lt
99.8 436.4 lt 98.0 453.5 lt 96.2 471.0 lt 94.4 488.1 lt
92.6 505.7 lt 91.3 522.8 lt 89.4 539.9 lt 88.1 557.5 lt
86.8 574.5 lt 85.4 592.1 lt 84.1 609.2 lt 83.2 626.3 lt
81.8 643.8 lt 80.9 661.0 lt 80.0 678.5 lt stroke
newpath 296.0 238.4 mt 296.0 246.5 lt stroke
newpath 296.9 237.1 mt (17h) lshow 429.2 241.1 mt 429.2 246.5 lt stroke
newpath 430.1 237.1 mt (16h20m) lshow 362.6 241.1 mt 362.6 246.5 lt stroke
newpath 363.5 237.1 mt (16h40m) lshow 296.0 241.1 mt 296.0 246.5 lt stroke
newpath 296.9 237.1 mt (17h) lshow 228.9 241.1 mt 228.9 246.5 lt stroke
newpath 229.8 237.1 mt (17h20m) lshow 162.4 241.1 mt 162.4 246.5 lt stroke
newpath 163.3 237.1 mt (17h40m) lshow 455.8 243.8 mt 455.8 246.5 lt stroke
newpath 442.3 243.8 mt 442.3 246.5 lt stroke 
newpath 429.2 243.8 mt 429.2 246.5 lt stroke
newpath 415.7 243.8 mt 415.7 246.5 lt stroke
newpath 402.6 243.8 mt 402.6 246.5 lt stroke
newpath 389.1 243.8 mt 389.1 246.5 lt stroke
newpath 375.6 243.8 mt 375.6 246.5 lt stroke
newpath 362.6 243.8 mt 362.6 246.5 lt stroke
newpath 349.1 243.8 mt 349.1 246.5 lt stroke
newpath 335.6 243.8 mt 335.6 246.5 lt stroke
newpath 322.5 243.8 mt 322.5 246.5 lt stroke
newpath 309.0 243.8 mt 309.0 246.5 lt stroke
newpath 296.0 243.8 mt 296.0 246.5 lt stroke
newpath 282.5 243.8 mt 282.5 246.5 lt stroke
newpath 269.0 243.8 mt 269.0 246.5 lt stroke
newpath 255.9 243.8 mt 255.9 246.5 lt stroke
newpath 242.4 243.8 mt 242.4 246.5 lt stroke
newpath 228.9 243.8 mt 228.9 246.5 lt stroke
newpath 215.9 243.8 mt 215.9 246.5 lt stroke
newpath 202.4 243.8 mt 202.4 246.5 lt stroke
newpath 188.9 243.8 mt 188.9 246.5 lt stroke
newpath 175.9 243.8 mt 175.9 246.5 lt stroke
newpath 162.4 243.8 mt 162.4 246.5 lt stroke
newpath 149.3 243.8 mt 149.3 246.5 lt stroke
newpath 135.8 243.8 mt 135.8 246.5 lt stroke
newpath 489.0 410.3 mt 497.1 410.3 lt stroke
newpath 499.8 408.5 mt (-30d) lshow 505.3 583.1 mt 513.3 583.1 lt stroke
newpath 516.0 581.3 mt (-20d) lshow 478.7 323.9 mt 484.1 323.9 lt stroke
newpath 489.5 322.1 mt (-35d) lshow 489.0 410.3 mt 494.4 410.3 lt stroke
newpath 499.8 408.5 mt (-30d) lshow 498.0 496.7 mt 503.4 496.7 lt stroke
newpath 508.8 494.9 mt (-25d) lshow 505.3 583.1 mt 510.6 583.1 lt stroke
newpath 516.0 581.3 mt (-20d) lshow 511.1 669.5 mt 516.5 669.5 lt stroke
newpath 521.9 667.7 mt (-15d) lshow 469.3 255.0 mt 471.9 255.0 lt stroke
newpath 480.0 253.3 mt (-39d) lshow 471.5 272.1 mt 474.2 272.1 lt stroke
newpath 482.3 270.4 mt (-38d) lshow 473.8 289.7 mt 476.4 289.7 lt stroke
newpath 484.5 287.9 mt (-37d) lshow 476.4 306.8 mt 479.1 306.8 lt stroke
newpath 487.3 305.0 mt (-36d) lshow 478.7 323.9 mt 481.4 323.9 lt stroke
newpath 489.5 322.1 mt (-35d) lshow 480.9 341.4 mt 483.6 341.4 lt stroke
newpath 491.8 339.6 mt (-34d) lshow 482.8 358.5 mt 485.4 358.5 lt stroke
newpath 493.5 356.8 mt (-33d) lshow 485.0 376.1 mt 487.7 376.1 lt stroke
newpath 495.8 374.3 mt (-32d) lshow 486.8 393.2 mt 489.5 393.2 lt stroke
newpath 497.6 391.4 mt (-31d) lshow 489.0 410.3 mt 491.8 410.3 lt stroke
newpath 499.8 408.5 mt (-30d) lshow 490.8 427.8 mt 493.5 427.8 lt stroke
newpath 501.6 426.0 mt (-29d) lshow 492.6 444.9 mt 495.3 444.9 lt stroke
newpath 503.4 443.1 mt (-28d) lshow 494.4 462.5 mt 497.1 462.5 lt stroke
newpath 505.3 460.7 mt (-27d) lshow 496.3 479.6 mt 498.9 479.6 lt stroke
newpath 507.0 477.8 mt (-26d) lshow 498.0 496.7 mt 500.8 496.7 lt stroke
newpath 508.8 494.9 mt (-25d) lshow 499.4 514.3 mt 502.1 514.3 lt stroke
newpath 510.2 512.5 mt (-24d) lshow 501.2 531.3 mt 503.9 531.3 lt stroke
newpath 512.0 529.5 mt (-23d) lshow 502.5 548.9 mt 505.3 548.9 lt stroke
newpath 513.3 547.1 mt (-22d) lshow 503.9 566.0 mt 506.6 566.0 lt stroke
newpath 514.7 564.2 mt (-21d) lshow 505.3 583.1 mt 507.9 583.1 lt stroke
newpath 516.0 581.3 mt (-20d) lshow 506.6 600.6 mt 509.3 600.6 lt stroke
newpath 517.4 598.8 mt (-19d) lshow 507.9 617.8 mt 510.6 617.8 lt stroke
newpath 518.8 616.0 mt (-18d) lshow 509.3 635.3 mt 512.0 635.3 lt stroke
newpath 520.1 633.5 mt (-17d) lshow 510.2 652.4 mt 512.9 652.4 lt stroke
newpath 521.0 650.6 mt (-16d) lshow 511.1 669.5 mt 513.8 669.5 lt stroke
newpath 521.9 667.7 mt (-15d) lshow
/Times-Bold findfont 30 scalefont setfont 
413.9 471.9 s1
/Times-Bold findfont 10 scalefont setfont 4
17.5 470.1 mt (Antares) lshow
/Times-Bold findfont 30 scalefont setfont 
179.9 287.9 s1
/Times-Bold findfont 10 scalefont setfont 
183.5 286.1 mt (Shaula) lshow
/Times-Bold findfont 24 scalefont setfont 3
30.6 336.0 s2 153.4 254.1 s2 252.8 657.3 s2 
190.3 284.3 s2 387.8 441.3 s2 446.8 486.8 s2
/Times-Bold findfont 16 scalefont setfont 
323.5 271.3 s3 124.1 288.8 s3
209.6 496.7 s3 139.4 662.8 s3 321.6 271.7 s3
/Times-Bold findfont 12 scalefont setfont 4
91.3 592.5 s4 379.3 319.9 s4 192.1 511.1 s4 
114.2 448.1 s4 397.3 329.3 s4 415.3 641.6 s4 
172.3 261.4 s4 193.4 412.5 s4 431.0 609.6 s4 
210.9 564.2 s4 407.6 557.9 s4 441.3 582.7 s4
450.8 511.1 s4 477.8 446.3 s4 453.9 434.1 s4 4
12.1 494.9 s4 171.8 514.7 s4 115.1 381.0 s4 
278.5 339.2 s4 121.4 554.3 s4 371.6 622.3 s4
/Times-Bold findfont 8 scalefont setfont
432.3 523.7 s5 288.8 373.4 s5 480.0 420.6 s5
224.9 508.8 s5 432.3 523.7 s5 236.6 469.3 s5
236.6 469.3 s5 206.9 442.3 s5 416.1 251.4 s5
428.3 415.7 s5 417.0 279.8 s5 305.9 354.0 s5
445.8 394.5 s5 340.1 248.3 s5 240.6 349.1 s5
233.9 364.4 s5 147.9 290.1 s5 476.0 349.1 s5
369.4 584.5 s5 308.6 528.7 s5 477.3 437.8 s5
169.6 365.8 s5 422.0 677.6 s5 295.1 497.1 s5
361.7 355.9 s5 296.0 495.3 s5 404.9 286.5 s5
498.5 519.7 s5 283.0 269.5 s5 228.5 323.9 s5
322.5 575.9 s5 216.8 285.6 s5 367.5 285.6 s5
192.1 415.3 s5 139.4 659.6 s5 263.1 403.5 s5
428.3 415.7 s5 242.9 261.8 s5 196.6 558.3 s5
352.7 436.4 s5 467.0 671.8 s5 248.3 368.4 s5
172.7 474.6 s5 195.6 293.3 s5 214.1 622.3 s5
293.8 307.7 s5 350.9 269.5 s5 471.5 488.6 s5
480.0 672.2 s5 368.0 506.1 s5 96.7 674.5 s5
461.1 358.5 s5 299.6 278.9 s5 406.3 470.1 s5
248.3 449.4 s5 238.4 311.3 s5 339.6 658.3 s5
427.4 247.4 s5 344.1 671.3 s5 261.8 624.5 s5
274.0 285.6 s5 307.7 591.2 s5 231.6 676.7 s5
273.0 316.3 s5 109.3 462.9 s5 276.6 575.0 s5
197.0 509.8 s5 269.0 471.0 s5 236.6 406.7 s5
326.6 280.7 s5 491.3 592.5 s5 194.8 609.6 s5
105.2 540.3 s5 168.2 271.3 s5 206.9 329.3 s5
270.8 556.1 s5 179.9 336.5 s5 479.1 564.2 s5
247.8 492.6 s5 191.1 480.5 s5 315.8 400.4 s5
130.4 447.2 s5 310.4 349.5 s5 288.4 602.5 s5
481.4 608.8 s5 196.1 263.1 s5 228.9 366.2 s5
218.6 275.8 s5 355.9 454.4 s5 477.8 507.0 s5
135.8 270.4 s5 216.8 308.1 s5 468.3 253.3 s5
501.2 611.9 s5 219.9 647.0 s5 254.6 258.2 s5
461.6 579.5 s5 355.4 374.3 s5 374.3 575.9 s5
139.9 357.6 s5 301.4 672.2 s5 173.1 282.0 s5
312.2 638.5 s5 211.8 594.8 s5 181.7 346.4 s5
346.9 487.7 s5 154.3 548.0 s5 468.8 560.6 s5
105.2 400.9 s5 468.3 253.3 s5 479.1 364.9 s5
224.9 508.8 s5 426.0 354.9 s5 406.3 611.9 planet
/Times-Bold findfont 10 scalefont setfont
409.9 610.1 mt (Venus) lshow 277.5 560.2 planet
281.1 558.3 mt (Saturn) lshow 152.4 523.7 planet
156.1 521.9 mt (Uranus) lshow
485.9 80.0 mt 321.6 80.0 lt stroke
newpath 511.5 188.0 mt 295.5 188.0 lt stroke
newpath 485.9 80.0 mt 487.3 83.6 lt 488.1 87.2 lt
489.5 90.8 lt 490.8 94.4 lt 491.8 98.0 lt 493.1 101.6 lt
494.0 105.2 lt 495.3 108.8 lt 496.3 112.4 lt 497.6 116.0 lt
498.5 119.6 lt 499.4 123.2 lt 500.3 126.8 lt 501.2 130.4 lt
502.1 134.0 lt 503.0 137.6 lt 503.9 141.2 lt 504.8 144.8 lt
505.3 148.4 lt 506.1 152.0 lt 507.0 155.6 lt 507.5 159.2 lt
507.9 162.8 lt 508.8 166.4 lt 509.3 170.0 lt 509.8 173.6 lt
510.6 177.2 lt 511.1 180.8 lt 511.5 184.4 lt 511.5 188.0 lt stroke
newpath 321.6 80.0 mt 320.3 83.6 lt 319.4 87.2 lt 318.0 90.8 lt
316.7 94.4 lt 315.8 98.0 lt 314.5 101.6 lt 313.5 105.2 lt
312.2 108.8 lt 311.3 112.4 lt 310.0 116.0 lt 309.0 119.6 lt
308.1 123.2 lt 307.3 126.8 lt 306.4 130.4 lt 305.5 134.0 lt
304.5 137.6 lt 303.6 141.2 lt 302.8 144.8 lt 302.3 148.4 lt
301.4 152.0 lt 300.5 155.6 lt 300.0 159.2 lt 299.6 162.8 lt
298.7 166.4 lt 298.3 170.0 lt 297.8 173.6 lt 296.9 177.2 lt
296.5 180.8 lt 296.0 184.4 lt 295.5 188.0 lt stroke
newpath 484.1 71.9 mt 484.1 80.0 lt stroke
newpath 485.0 70.6 mt (15h) lshow 444.0 71.9 mt 444.0 80.0 lt stroke
newpath 444.9 70.6 mt (16h) lshow 404.0 71.9 mt 404.0 80.0 lt stroke
newpath 404.9 70.6 mt (17h) lshow 363.5 71.9 mt 363.5 80.0 lt stroke
newpath 364.4 70.6 mt (18h) lshow 323.5 71.9 mt 323.5 80.0 lt stroke
newpath 324.4 70.6 mt (19h) lshow 484.1 74.6 mt 484.1 80.0 lt stroke
newpath 470.6 74.6 mt 470.6 80.0 lt stroke
newpath 457.1 74.6 mt 457.1 80.0 lt stroke
newpath 444.0 74.6 mt 444.0 80.0 lt stroke
newpath 430.5 74.6 mt 430.5 80.0 lt stroke
newpath 417.0 74.6 mt 417.0 80.0 lt stroke
newpath 404.0 74.6 mt 404.0 80.0 lt stroke
newpath 390.5 74.6 mt 390.5 80.0 lt stroke
newpath 377.0 74.6 mt 377.0 80.0 lt stroke
newpath 363.5 74.6 mt 363.5 80.0 lt stroke
newpath 350.4 74.6 mt 350.4 80.0 lt stroke
newpath 336.9 74.6 mt 336.9 80.0 lt stroke
newpath 323.5 74.6 mt 323.5 80.0 lt stroke
newpath 484.1 77.3 mt 484.1 80.0 lt stroke
newpath 481.4 77.3 mt 481.4 80.0 lt stroke
newpath 478.7 77.3 mt 478.7 80.0 lt stroke
newpath 476.0 77.3 mt 476.0 80.0 lt stroke
newpath 473.3 77.3 mt 473.3 80.0 lt stroke
newpath 470.6 77.3 mt 470.6 80.0 lt stroke
newpath 467.9 77.3 mt 467.9 80.0 lt stroke
newpath 465.2 77.3 mt 465.2 80.0 lt stroke
newpath 462.5 77.3 mt 462.5 80.0 lt stroke
newpath 459.8 77.3 mt 459.8 80.0 lt stroke
newpath 457.1 77.3 mt 457.1 80.0 lt stroke
newpath 454.4 77.3 mt 454.4 80.0 lt stroke
newpath 452.1 77.3 mt 452.1 80.0 lt stroke
newpath 449.4 77.3 mt 449.4 80.0 lt stroke
newpath 446.8 77.3 mt 446.8 80.0 lt stroke
newpath 444.0 77.3 mt 444.0 80.0 lt stroke
newpath 441.3 77.3 mt 441.3 80.0 lt stroke
newpath 438.6 77.3 mt 438.6 80.0 lt stroke
newpath 435.9 77.3 mt 435.9 80.0 lt stroke
newpath 433.3 77.3 mt 433.3 80.0 lt stroke
newpath 430.5 77.3 mt 430.5 80.0 lt stroke
newpath 427.8 77.3 mt 427.8 80.0 lt stroke
newpath 425.1 77.3 mt 425.1 80.0 lt stroke
newpath 422.4 77.3 mt 422.4 80.0 lt stroke
newpath 419.8 77.3 mt 419.8 80.0 lt stroke
newpath 417.0 77.3 mt 417.0 80.0 lt stroke
newpath 414.4 77.3 mt 414.4 80.0 lt stroke
newpath 411.6 77.3 mt 411.6 80.0 lt stroke
newpath 408.9 77.3 mt 408.9 80.0 lt stroke
newpath 406.3 77.3 mt 406.3 80.0 lt stroke
newpath 404.0 77.3 mt 404.0 80.0 lt stroke
newpath 401.3 77.3 mt 401.3 80.0 lt stroke
newpath 398.6 77.3 mt 398.6 80.0 lt stroke
newpath 395.9 77.3 mt 395.9 80.0 lt stroke
newpath 393.2 77.3 mt 393.2 80.0 lt stroke
newpath 390.5 77.3 mt 390.5 80.0 lt stroke
newpath 387.8 77.3 mt 387.8 80.0 lt stroke
newpath 385.1 77.3 mt 385.1 80.0 lt stroke
newpath 382.4 77.3 mt 382.4 80.0 lt stroke
newpath 379.7 77.3 mt 379.7 80.0 lt stroke
newpath 377.0 77.3 mt 377.0 80.0 lt stroke
newpath 374.3 77.3 mt 374.3 80.0 lt stroke
newpath 371.6 77.3 mt 371.6 80.0 lt stroke
newpath 368.9 77.3 mt 368.9 80.0 lt stroke
newpath 366.2 77.3 mt 366.2 80.0 lt stroke
newpath 363.5 77.3 mt 363.5 80.0 lt stroke
newpath 360.8 77.3 mt 360.8 80.0 lt stroke
newpath 358.1 77.3 mt 358.1 80.0 lt stroke
newpath 355.4 77.3 mt 355.4 80.0 lt stroke
newpath 353.1 77.3 mt 353.1 80.0 lt stroke
newpath 350.4 77.3 mt 350.4 80.0 lt stroke
newpath 347.8 77.3 mt 347.8 80.0 lt stroke
newpath 345.0 77.3 mt 345.0 80.0 lt stroke
newpath 342.4 77.3 mt 342.4 80.0 lt stroke
newpath 339.6 77.3 mt 339.6 80.0 lt stroke
newpath 336.9 77.3 mt 336.9 80.0 lt stroke
newpath 334.3 77.3 mt 334.3 80.0 lt stroke
newpath 331.5 77.3 mt 331.5 80.0 lt stroke
newpath 328.9 77.3 mt 328.9 80.0 lt stroke
newpath 326.1 77.3 mt 326.1 80.0 lt stroke
newpath 323.5 77.3 mt 323.5 80.0 lt stroke
newpath 488.1 87.2 mt 496.3 87.2 lt stroke
newpath 498.9 85.4 mt (-40d) lshow 499.4 123.2 mt 507.5 123.2 lt stroke
newpath 510.2 121.4 mt (-30d) lshow 507.5 159.2 mt 515.6 159.2 lt stroke
newpath 518.3 157.4 mt (-20d) lshow 488.1 87.2 mt 493.5 87.2 lt stroke
newpath 498.9 85.4 mt (-40d) lshow 494.0 105.2 mt 499.4 105.2 lt stroke
newpath 504.8 103.4 mt (-35d) lshow 499.4 123.2 mt 504.8 123.2 lt stroke
newpath 510.2 121.4 mt (-30d) lshow 503.9 141.2 mt 509.3 141.2 lt stroke
newpath 514.7 139.4 mt (-25d) lshow 507.5 159.2 mt 512.9 159.2 lt stroke
newpath 518.3 157.4 mt (-20d) lshow 510.6 177.2 mt 516.0 177.2 lt stroke
newpath 521.5 175.4 mt (-15d) lshow 485.9 80.0 mt 488.6 80.0 lt stroke
newpath 487.3 83.6 mt 489.9 83.6 lt stroke 
newpath 488.1 87.2 mt 490.8 87.2 lt stroke
newpath 489.5 90.8 mt 492.2 90.8 lt stroke
newpath 490.8 94.4 mt 493.5 94.4 lt stroke
newpath 491.8 98.0 mt 494.4 98.0 lt stroke
newpath 493.1 101.6 mt 495.8 101.6 lt stroke
newpath 494.0 105.2 mt 496.7 105.2 lt stroke
newpath 495.3 108.8 mt 498.0 108.8 lt stroke
newpath 496.3 112.4 mt 498.9 112.4 lt stroke
newpath 497.6 116.0 mt 500.3 116.0 lt stroke
newpath 498.5 119.6 mt 501.2 119.6 lt stroke
newpath 499.4 123.2 mt 502.1 123.2 lt stroke
newpath 500.3 126.8 mt 503.0 126.8 lt stroke
newpath 501.2 130.4 mt 503.9 130.4 lt stroke
newpath 502.1 134.0 mt 504.8 134.0 lt stroke
newpath 503.0 137.6 mt 505.7 137.6 lt stroke
newpath 503.9 141.2 mt 506.6 141.2 lt stroke
newpath 504.8 144.8 mt 507.5 144.8 lt stroke
newpath 505.3 148.4 mt 507.9 148.4 lt stroke
newpath 506.1 152.0 mt 508.8 152.0 lt stroke
newpath 507.0 155.6 mt 509.8 155.6 lt stroke
newpath 507.5 159.2 mt 510.2 159.2 lt stroke
newpath 507.9 162.8 mt 510.6 162.8 lt stroke
newpath 508.8 166.4 mt 511.5 166.4 lt stroke
newpath 509.3 170.0 mt 512.0 170.0 lt stroke
newpath 509.8 173.6 mt 512.5 173.6 lt stroke
newpath 510.6 177.2 mt 513.3 177.2 lt stroke
newpath 511.1 180.8 mt 513.8 180.8 lt stroke
newpath 511.5 184.4 mt 514.3 184.4 lt stroke
newpath 511.5 188.0 mt 514.3 188.0 lt
/Times-Bold findfont 30 scalefont setfont
428.3 135.8 s1
/Times-Bold findfont 10 scalefont setfont
stroke
newpath 431.9 134.0 mt (Antares) lshow
/Times-Bold findfont 30 scalefont setfont
379.7 97.6 s1
/Times-Bold findfont 10 scalefont setfont
383.3 95.8 mt (Shaula) lshow
/Times-Bold findfont 30 scalefont setfont
341.4 107.0 s1
/Times-Bold findfont 24 scalefont setfont
310.9 136.3 s2 411.2 107.4 s2 453.5 149.8 s2 373.9 90.3 s2
395.0 174.5 s2 308.1 123.7 s2 449.9 159.7 s2 340.5 123.7 s2
381.9 96.7 s2 461.1 82.7 s2 332.5 139.4 s2 422.9 129.5 s2
435.0 138.9 s2 453.0 137.1 s2 352.7 121.4 s2
/Times-Bold findfont 16 scalefont setfont
371.1 86.8 s3 347.8 98.4 s3 409.4 93.9 s3 319.0 134.0 s3
368.0 97.6 s3 426.9 165.1 planet
/Times-Bold findfont 10 scalefont setfont
430.5 163.3 mt (Venus) lshow 399.9 154.3 planet
403.5 152.4 mt (Saturn) lshow
/Times-Bold findfont 14 scalefont setfont
125.0 177.2 mt (Scorpio 87.1.17) lshow
/Times-Bold findfont 10 scalefont setfont
89.0 168.2 mt (= = = = = = = = = = = =) lshow
89.0 159.2 mt (Right Ascension:) lshow
197.0 159.2 mt ( 17h) lshow
89.0 150.2 mt (Declination:) lshow
197.0 150.2 mt (-27d) lshow
89.0 141.2 mt (Chart Scale:) lshow
197.0 141.2 mt ( 25.000) lshow
89.0 87.2 mt (= = = = = = = = = = = =) lshow
131.8 127.7 mt (<1.0) lshow
131.8 114.2 mt (<2.0) lshow
131.8 100.7 mt (<3.0) lshow
197.0 127.7 mt (<4.0) lshow
197.0 114.2 mt (<5.0) lshow
197.0 100.7 mt (>5.0) lshow
/Times-Bold findfont 36 scalefont setfont
109.3 129.5 s0
/Times-Bold findfont 30 scalefont setfont
109.3 116.0 s1
/Times-Bold findfont 24 scalefont setfont
109.3 102.5 s2
/Times-Bold findfont 16 scalefont setfont
188.0 129.5 s3
/Times-Bold findfont 12 scalefont setfont
188.0 116.0 s4
/Times-Bold findfont 8 scalefont setfont
188.0 102.5 s5
showpage
%
%%Trailer
%%Pages: 1


