%!PS
/showGorilla { moveto (Gorilla) show } def % stack: x y
/Times-Roman findfont 6 scalefont setfont
72 300 showGorilla
/Times-Roman findfont 10 scalefont setfont
72 275 showGorilla
/Times-Roman findfont 15 scalefont setfont
72 250 showGorilla
/Times-Roman findfont 20 scalefont setfont
72 225 showGorilla
showpage
%%EOF