%!PS-Adobe-2.0
%%Creator: Alena Lacova, Nikhef-H, Amsterdam
%%CreationDate: May-1992
%%Title: zubrienka
%%EndComments
%%BeginProlog
/pi 3.141595653 def
/arcsin { %def	%num arcsin
	dup dup mul 1 exch sub sqrt atan
} def
/triangle { %def
	/size x2 x1 sub 10 div abs def
	gsave
		size 2 div  radius translate
		0 0 moveto size neg size 3 div rlineto
		0 size 3 div 2 mul neg rlineto
		closepath  fill
	grestore
} def
/zubrienka { %def 
		% x1 y1 x2 y2 radius number_for_dashes num_for_gaps 
		%		zubrienka
    gsave
	/num2 exch def /num1 exch def
	/radius exch def
	/y2 exch def /x2 exch def
	/y1 exch def /x1 exch def
	/x x2 x1 sub dup mul y2 y1 sub dup mul add sqrt def
	/gama y2 y1 sub x2 x1 sub atan def
	/xr x 2 div  def
	/yr radius dup mul x 2 div dup mul sub sqrt neg def
		% half of angle between two points:
	/alpha x 2 div radius div arcsin  def	
	x1 y1 1 0 360 arc stroke 	% first point
	x2 y2 1 0 360 arc stroke	% second point
	x1 y1 translate
	gama rotate		% to connect 2 points by circle
	xr yr translate		% to the middle of circle
	%0 0 2 0 360 arc stroke	% middle of the circle
	gsave
		triangle 
		[num1 num2] 0 setdash
		0 0 radius 90 alpha sub 90 alpha add arc stroke
		1 -1 scale 0 yr 2 mul translate		
		gsave -1 1 scale triangle grestore
		0 0 radius 90 alpha sub 90 alpha add arc stroke
	grestore
    grestore
} def
%%EndProlog
%%Page: 0 1
300 700 400 750 80 3 1 zubrienka
100 600 200 550 100 2 2 zubrienka
200 400 400 400 120 10 5 zubrienka
100 300 200 300 50 5 4 zubrienka
100 200 400 200 2000 4 6 zubrienka
showpage
%%Trailer
